<?xml version="1.0" encoding="utf-8"?>
<!-- Generator: Adobe Illustrator 24.0.2, SVG Export Plug-In . SVG Version: 6.00 Build 0)  -->
<svg version="1.1" id="Layer_1" xmlns="http://www.w3.org/2000/svg" xmlns:xlink="http://www.w3.org/1999/xlink" x="0px" y="0px"
	 viewBox="0 0 890 350" style="enable-background:new 0 0 890 350;" xml:space="preserve">
<style type="text/css">
	.st0{fill:#989798;}
</style>
<g>
	<g>
		<g>
			<path class="st0" d="M65.72,132.51c-1.1-5.99-1.09-12.08,0-18.08c0.26-1.4-0.67-2.75-2.07-3c-1.4-0.26-2.74,0.67-3.01,2.07
				c-1.22,6.62-1.22,13.33-0.01,19.95c2.19,11.98,8.26,22.82,17.54,31.36c1.05,0.97,2.68,0.9,3.65-0.15
				c0.96-1.04,0.9-2.68-0.15-3.65C73.23,153.23,67.72,143.38,65.72,132.51z"/>
			<path class="st0" d="M92.07,156.84c5.33,4.83,11.9,8.78,19.34,11.52c7.43,2.74,15.72,4.28,24.46,4.28
				c3.94,0,7.88-0.31,11.77-0.96c12.66-2.06,23.82-7.39,32.03-14.83c8.57-7.78,14.33-18.57,14.33-30.32
				c0-7.11-2.12-13.87-5.68-19.83c-2.33-3.87-5.27-7.4-8.65-10.47c-8.2-7.44-19.36-12.77-32.02-14.84
				c-3.9-0.65-7.84-0.95-11.78-0.95c-8.73,0-17.01,1.53-24.44,4.26C104,87.44,97.42,91.38,92.1,96.21
				c-3.38,3.07-6.34,6.61-8.66,10.48c-3.58,5.95-5.7,12.73-5.7,19.83C77.76,138.19,83.55,149.11,92.07,156.84z M153.17,113.69h25.53
				v5.11h-20.18v15.32h14.83v-5.29h-7.42v-5.1h12.76v15.49h-25.53V113.69z M126.35,113.69h23.98v5.11H131.7v15.32h18.54v5.1h-23.89
				V113.69z M93.08,113.69h29.83v25.53h-5.36V118.8h-6.82v20.42h-5.34V118.8h-6.97v20.42h-5.35V113.69z"/>
			<path class="st0" d="M73.35,126.15c-0.23-10.13,2.59-20.3,8.15-29.41c0.45-0.75,0.21-1.74-0.54-2.2
				c-0.76-0.46-1.74-0.21-2.2,0.54c-5.88,9.63-8.85,20.4-8.61,31.15c0.24,10.53,3.57,20.79,9.63,29.68c0.5,0.72,1.49,0.92,2.22,0.42
				c0.73-0.49,0.92-1.49,0.43-2.22C76.71,145.73,73.57,136.06,73.35,126.15z"/>
			<path class="st0" d="M102.76,71.75c10.13-4.35,21.58-6.64,33.12-6.64c11.75,0,23.39,2.37,33.67,6.88
				c0.86,0.39,1.86-0.01,2.24-0.88c0.38-0.86-0.01-1.86-0.87-2.23c-10.7-4.7-22.82-7.18-35.03-7.18c-11.99,0-23.9,2.4-34.45,6.93
				c-0.86,0.37-1.27,1.36-0.89,2.23C100.9,71.72,101.9,72.12,102.76,71.75z"/>
			<path class="st0" d="M184.84,157.47c-12.17,12.3-29.65,20.05-47.96,21.27c-17.47,1.17-33.92-3.5-46.31-13.15
				c-0.73-0.58-1.81-0.44-2.38,0.3c-0.58,0.74-0.45,1.81,0.29,2.38c13.05,10.17,30.32,15.1,48.63,13.87
				c19.13-1.28,37.41-9.41,50.15-22.28c0.66-0.67,0.65-1.74-0.01-2.4C186.58,156.8,185.5,156.81,184.84,157.47z"/>
			<path class="st0" d="M191.61,149.01c0.79,0.52,1.84,0.31,2.36-0.48c5.48-8.26,8.43-17.76,8.53-27.48
				c0.1-9.91-2.77-19.8-8.29-28.61c-0.5-0.79-1.55-1.03-2.34-0.53c-0.8,0.5-1.03,1.55-0.54,2.34c5.17,8.26,7.86,17.51,7.78,26.77
				c-0.09,9.05-2.85,17.91-7.97,25.63C190.61,147.44,190.83,148.5,191.61,149.01z"/>
			<path class="st0" d="M210.41,111.26c-0.38-1.57-1.96-2.53-3.53-2.15c-1.56,0.38-2.53,1.96-2.15,3.54
				c1.01,4.16,1.46,8.46,1.35,12.78c-0.32,12.37-5.24,23.96-14.22,33.51c-1.11,1.17-1.06,3.03,0.12,4.13
				c1.18,1.11,3.02,1.05,4.13-0.13c9.97-10.61,15.43-23.54,15.8-37.36C212.05,120.75,211.54,115.93,210.41,111.26z"/>
			<path class="st0" d="M165.92,182.63c-9.42,3.22-19.44,4.7-29.78,4.41c-11.74-0.33-23.31-3.02-33.47-7.81
				c-0.84-0.4-1.86-0.03-2.26,0.82c-0.4,0.85-0.03,1.86,0.81,2.26c10.58,4.98,22.62,7.8,34.82,8.13
				c10.74,0.31,21.16-1.24,30.96-4.59c0.89-0.3,1.36-1.27,1.06-2.16C167.78,182.8,166.8,182.32,165.92,182.63z"/>
			<path class="st0" d="M94.61,83.76c11.87-7.04,26.58-10.4,41.42-9.44c18.71,1.22,35.92,9.06,47.23,21.52
				c0.95,1.06,2.59,1.14,3.65,0.18c1.05-0.96,1.13-2.59,0.17-3.65c-12.19-13.44-30.67-21.91-50.71-23.2
				c-15.87-1.03-31.64,2.57-44.39,10.14c-1.22,0.73-1.64,2.32-0.91,3.55C91.8,84.08,93.38,84.48,94.61,83.76z"/>
		</g>
		<g>
			<g>
				<g>
					<path class="st0" d="M435.04,102.32l2.53-6.96c1.35-3.78,1.17-6.59-2.84-8.03c-4.01-1.45-2.95-1.06-5.52-2
						c-2.58-0.93-5.75,0.06-7.6,5.2c-1.87,5.15-4.42,12.25-5.67,15.65c-1.8,4.99,0.35,8.37,1.47,8.98c-1.26-0.2-4.93,0.19-7.37,6.91
						c-2.44,6.73-6.76,18.7-7.83,21.65c-1.38,3.79-0.96,6.81,3.35,8.36c4.32,1.56,10.02,3.62,10.02,3.62l7.9-21.85l-6.96-2.51
						l-1.39,3.86c0,0,1.44,0.52,2.04,0.74c0.61,0.22,0.63,0.65,0.45,1.11c-0.16,0.45-4.24,11.72-4.38,12.09
						c-0.13,0.38-0.45,0.94-1.29,0.65c-0.83-0.31-3.14-1.14-4.27-1.55c-1.14-0.4-1.75-1.56-1.27-2.85
						c0.45-1.29,8.32-23.05,9.01-24.94c0.9-2.51,2.68-2.47,3.28-2.25c0.61,0.22,5.68,2.05,5.68,2.05l1.52-4.23
						c0,0-5.04-1.91-5.8-2.19c-0.74-0.27-1.72-1.39-0.87-3.73c0.85-2.34,6.03-16.71,6.64-18.37c0.6-1.66,2.08-2.24,2.84-1.97
						c0.76,0.27,2.64,0.95,3.48,1.26c0.84,0.3,1.52,1.49,0.93,3.15c-0.6,1.67-2.38,6.58-2.38,6.58L435.04,102.32z"/>
				</g>
				<g>
					<polygon class="st0" points="301.99,119.94 301.74,119.94 299.97,106.36 294.32,106.36 294.32,134.7 298.64,134.7 
						298.47,117.95 298.75,117.95 300.6,134.7 303.15,134.7 304.99,117.95 305.28,117.95 305.1,134.7 309.42,134.7 309.42,106.36 
						303.77,106.36 					"/>
					<polygon class="st0" points="311.63,134.7 319.38,134.7 319.38,130.97 316.48,130.97 316.48,121.02 319.38,121.02 
						319.38,117.29 316.48,117.29 316.48,110.06 319.38,110.06 319.38,106.36 311.63,106.36 					"/>
					<polygon class="st0" points="325.83,106.36 320.99,106.36 320.99,134.7 328.73,134.7 328.73,130.97 325.83,130.97 					"/>
					<path class="st0" d="M336.09,106.36h-5.97v28.35h5.52c5.06,0,5.69-1.22,5.69-5.73v-5.19c0-2.31-0.35-3.6-2.13-4.41
						c1.61-0.66,2.13-1.96,2.13-4.26v-3.73C341.33,107.51,340.28,106.36,336.09,106.36z M336.52,129.74c0,0.9-0.29,1.26-1.09,1.26
						c-0.14,0-0.27,0-0.45-0.03v-9.42c0.14,0,0.28-0.04,0.42-0.04c0.81,0,1.13,0.31,1.13,1.21V129.74z M336.52,116.16
						c0,0.91-0.29,1.25-1.13,1.25c-0.14,0-0.28-0.03-0.42-0.03v-7.32h0.52c0.73,0,1.02,0.31,1.02,1.19V116.16z"/>
					<path class="st0" d="M348.83,106.18c-5.02,0-5.58,0.83-5.58,5.66v17.38c0,4.88,0.7,5.69,5.65,5.69c4.92,0,5.55-0.91,5.55-5.69
						v-17.38C354.45,106.95,353.76,106.18,348.83,106.18z M349.6,129.92c0,0.8-0.15,1.19-0.74,1.19c-0.59,0-0.8-0.35-0.8-1.19
						v-18.74c0-0.81,0.17-1.23,0.74-1.23c0.62,0,0.8,0.42,0.8,1.23V129.92z"/>
					<path class="st0" d="M363.18,129.92c0,0.8-0.14,1.22-0.73,1.22c-0.59,0-0.77-0.42-0.77-1.22v-23.56h-4.85v22.9
						c0,4.85,0.7,5.65,5.66,5.65c4.9,0,5.56-0.87,5.56-5.65v-22.9h-4.85V129.92z"/>
					<path class="st0" d="M376.27,106.36h-5.94v28.35h4.85v-11.77c0.14,0,0.25-0.03,0.39-0.03c0.84,0,1.15,0.38,1.15,1.3v10.5h4.82
						v-9.63c0-2.35-0.41-3.67-2.2-4.36c1.99-0.92,2.2-2.35,2.2-4.9v-3.69C381.53,107.65,380.83,106.36,376.27,106.36z
						 M376.71,117.29c0,1.11-0.21,1.46-1.11,1.46c-0.1,0-0.28-0.03-0.43-0.03v-8.65h0.33c1.21,0,1.21,0.42,1.21,1.79V117.29z"/>
					<polygon class="st0" points="390.74,120.49 390.53,120.49 387.89,106.36 383.55,106.36 383.55,134.7 387.78,134.7 
						387.67,120.18 387.89,120.18 390.57,134.7 394.86,134.7 394.86,106.36 390.67,106.36 					"/>
					<polygon class="st0" points="397.1,134.7 404.84,134.7 404.84,130.97 401.95,130.97 401.95,121.02 404.84,121.02 
						404.84,117.29 401.95,117.29 401.95,110.06 404.84,110.06 404.84,106.36 397.1,106.36 					"/>
					<path class="st0" d="M433.71,106.18c-5.03,0-5.59,0.83-5.59,5.66v17.38c0,4.88,0.7,5.69,5.66,5.69c4.92,0,5.55-0.91,5.55-5.69
						v-17.38C439.33,106.95,438.63,106.18,433.71,106.18z M434.47,129.92c0,0.8-0.14,1.19-0.72,1.19c-0.6,0-0.8-0.35-0.8-1.19
						v-18.74c0-0.81,0.17-1.23,0.73-1.23c0.63,0,0.8,0.42,0.8,1.23V129.92z"/>
					<polygon class="st0" points="446.47,106.36 441.61,106.36 441.61,134.7 449.36,134.7 449.36,130.97 446.47,130.97 					"/>
					<polygon class="st0" points="453.81,117.29 452.56,106.36 447.84,106.36 451.3,123.25 451.3,134.7 456.32,134.7 456.32,123.25 
						459.53,106.36 454.96,106.36 					"/>
					<polygon class="st0" points="467.99,119.94 467.73,119.94 465.95,106.36 460.3,106.36 460.3,134.7 464.63,134.7 464.45,117.95 
						464.73,117.95 466.59,134.7 469.13,134.7 470.99,117.95 471.25,117.95 471.09,134.7 475.41,134.7 475.41,106.36 469.76,106.36 
											"/>
					<path class="st0" d="M483.74,106.36h-5.94v28.35h4.86v-10.02h1.12c4.74,0,5.23-1.12,5.23-5.8v-6.76
						C489.01,107.41,488.44,106.36,483.74,106.36z M484.2,119.23c0,1.33-0.04,1.71-1.13,1.71h-0.41v-10.89H483
						c1.19,0,1.19,0.38,1.19,1.79V119.23z"/>
					<rect x="490.47" y="106.36" class="st0" width="4.85" height="28.35"/>
					<path class="st0" d="M503,106.18c-5.02,0-5.57,0.83-5.57,5.66v17.38c0,4.88,0.7,5.69,5.65,5.69c4.92,0,5.54-0.91,5.54-5.69
						v-6.53h-4.85v7.23c0,0.8-0.14,1.19-0.74,1.19c-0.59,0-0.79-0.35-0.79-1.19v-18.74c0-0.81,0.17-1.23,0.73-1.23
						c0.62,0,0.8,0.42,0.8,1.23v4.86h4.85v-4.19C508.62,106.95,507.92,106.18,503,106.18z"/>
					<path class="st0" d="M523.79,106.36h-5.93v28.35h4.85v-10.02h1.11c4.74,0,5.24-1.12,5.24-5.8v-6.76
						C529.06,107.41,528.5,106.36,523.79,106.36z M524.25,119.23c0,1.33-0.04,1.71-1.12,1.71h-0.41v-10.89h0.35
						c1.19,0,1.19,0.38,1.19,1.79V119.23z"/>
					<path class="st0" d="M532.21,106.36l-2.8,28.35h4.68l0.35-6.04h2.03l0.35,6.04h4.71l-2.86-28.35H532.21z M534.62,124.89
						l0.77-12.91h0.15l0.73,12.91H534.62z"/>
					<path class="st0" d="M549.18,106.36h-5.93v28.35h4.86v-11.77c0.14,0,0.24-0.03,0.38-0.03c0.83,0,1.15,0.38,1.15,1.3v10.5h4.82
						v-9.63c0-2.35-0.42-3.67-2.19-4.36c1.99-0.92,2.19-2.35,2.19-4.9v-3.69C554.45,107.65,553.76,106.36,549.18,106.36z
						 M549.63,117.29c0,1.11-0.2,1.46-1.11,1.46c-0.11,0-0.28-0.03-0.42-0.03v-8.65h0.31c1.21,0,1.21,0.42,1.21,1.79V117.29z"/>
					<polygon class="st0" points="567.82,106.36 563.04,106.36 561.3,117.64 561.13,117.67 561.13,106.36 556.42,106.36 
						556.42,134.7 561.13,134.7 561.13,120.95 561.3,120.95 563.33,134.7 568.17,134.7 565.07,118.89 					"/>
					<path class="st0" d="M580.61,116.13v-4.29c0-4.76-0.56-5.66-5.59-5.66c-4.89,0-5.62,0.83-5.62,5.66v4.04
						c0,1.99,0.38,3.38,2.2,4.43l3.1,1.82c1.02,0.59,1.09,0.87,1.09,1.78v6.01c0,0.8-0.18,1.22-0.7,1.22
						c-0.59,0-0.81-0.42-0.81-1.22v-6.91h-4.88v6.25c0,4.78,0.7,5.65,5.57,5.65c5.06,0,5.63-0.8,5.63-5.65v-5.9
						c0-1.85-0.35-3.21-2.27-4.29l-2.97-1.72c-0.98-0.55-1.09-0.91-1.09-1.82v-4.39c0-0.77,0.15-1.19,0.69-1.19
						c0.6,0,0.81,0.36,0.81,1.19v5H580.61z"/>
				</g>
			</g>
		</g>
		<g>
			<g>
				<path class="st0" d="M336.14,212.19c6.25,0.71,12.34,2.17,18.12,4.31c1.48-3.01,2.96-6.03,4.44-9.04
					C350.8,208.62,343.28,210.23,336.14,212.19z"/>
				<path class="st0" d="M332.8,222.12c5.59,1.22,10.95,3.13,15.93,5.65c1.47-3.01,2.95-6.02,4.43-9.03
					C346.07,219.52,339.28,220.67,332.8,222.12z"/>
				<path class="st0" d="M306.65,228.38c5.68-2.19,11.63-4.17,17.88-5.88c-2.16-0.21-4.34-0.32-6.52-0.32
					c-3.57,0-7.17,0.28-10.76,0.87C307.05,224.83,306.85,226.6,306.65,228.38z"/>
				<path class="st0" d="M390.01,245.24c3.6-3.54,7.21-7.09,10.82-10.63c-7.93-1.9-15.63-3.18-23.08-3.95
					C382.5,234.93,386.64,239.84,390.01,245.24z"/>
				<path class="st0" d="M398.65,266.78c4.87-3.4,9.75-6.8,14.62-10.2c-7.27-3.37-14.41-6.02-21.37-8.12
					C395.01,254.13,397.31,260.29,398.65,266.78z"/>
			</g>
			<polygon class="st0" points="350.3,228.88 350.3,228.88 350.3,228.88 			"/>
			<g>
				<path class="st0" d="M332.31,213.52c-0.75,2.52-1.49,5.04-2.24,7.56c6.71-1.61,13.75-2.91,21.13-3.8
					C345.17,215.25,338.81,213.97,332.31,213.52z"/>
				<path class="st0" d="M329.64,223.57c-0.76,2.61-1.62,5.84-2.4,8.56c6.69-1.57,13.06-2.34,20.3-3.12
					C341.6,226.62,336.04,224.08,329.64,223.57z"/>
				<path class="st0" d="M345.09,239.59c5.95,0.08,12.11,0.43,18.47,1.17c-4.03-4.11-8.71-7.64-13.84-10.49
					C348.17,233.38,346.63,236.49,345.09,239.59z"/>
				<path class="st0" d="M359.41,227.94c4.15,0,8.4,0.14,12.74,0.44c-5.07-3.89-10.71-7.11-16.74-9.56
					c-1.54,3.11-3.09,6.21-4.63,9.31C353.61,228.01,356.49,227.94,359.41,227.94z"/>
				<path class="st0" d="M304.61,228.89c0.18-1.67,0.35-3.34,0.53-5.01c-4.88,2.39-9.52,4.94-13.94,7.64
					C295.63,230.13,300.13,229.26,304.61,228.89z"/>
				<path class="st0" d="M327.29,223.44c-5.92,1.52-11.58,3.28-17,5.24c5.1,0.05,10.17,1.22,14.63,2.8
					C325.63,229.07,326.58,225.86,327.29,223.44z"/>
				<path class="st0" d="M402.83,235.6c-3.71,3.61-7.43,7.23-11.15,10.85c7.14,2.09,14.47,4.76,21.93,8.16
					C410.93,247.75,407.29,241.36,402.83,235.6z"/>
				<path class="st0" d="M396.64,266.77c-1.38-6.52-3.75-12.7-6.97-18.37c-3.7,3.6-7.41,7.2-11.11,10.81
					C384.46,261.23,390.5,263.71,396.64,266.77z"/>
				<path class="st0" d="M358.92,229.67c-2.2,0-4.38,0.04-6.52,0.12c4.95,2.93,9.44,6.5,13.33,10.6c2.45-3.39,4.9-6.77,7.35-10.16
					C368.25,229.85,363.53,229.67,358.92,229.67z"/>
				<path class="st0" d="M375.16,230.83c-2.54,3.48-5.09,6.96-7.63,10.44c6.56,0.92,13.34,2.24,20.3,4.1
					C384.35,239.95,380.07,235.06,375.16,230.83z"/>
				<path class="st0" d="M384.31,218.31c-2.55,3.49-5.09,6.97-7.64,10.45c7.65,0.73,15.57,1.97,23.73,3.86
					C395.73,227.16,390.31,222.35,384.31,218.31z"/>
			</g>
			<g>
				<rect x="281.65" y="248.61" class="st0" width="6.06" height="37.38"/>
				<path class="st0" d="M257.95,274.75l-13.25-27.3l-7.12,30.64l-14.12-30.85l-15.43,32.84L193,247.23l-17.61,37.48l-0.59,1.3h1.47
					h4.42h0.64l0.25-0.56l4.12-9.37h14.2l4.03,9.36l0.25,0.57h0.64h0.44h1.47h2.55h1.46h0.41h0.64l0.25-0.56l4.12-9.37h14.2
					l4.03,9.36l0.25,0.57h0.64h4.47h1.46l0-0.01h0.09l5-22.88l11.73,23.43l11.71-23.75l4.99,23.2h5.76l-9.18-38.55L257.95,274.75z
					 M188.15,270.6l4.73-10.7l4.62,10.7H188.15z M218.61,270.6l4.73-10.7l4.62,10.7H218.61z"/>
			</g>
			<path class="st0" d="M353.43,264c-4.42-0.25-6.42,0.3-8.27,1.35v20.82h-3.5v-25.02h1.95l0.75,2.1c2.35-1.75,5.26-2.6,9.07-2.35
				V264z"/>
			<path class="st0" d="M364.83,271.45l12.11,14.71h-4.11l-10.38-12.43l-2.87,2.72v9.71h-3.4v-37h3.4v22.65l11.61-10.67h4.41
				L364.83,271.45z"/>
			<path class="st0" d="M327.89,260.64c-1.92,0-4.16,0.26-6.11,0.85c-0.1,1.16-0.32,2.25-0.64,3.26c1.77-0.55,3.82-1.01,6.75-1.01
				c4.65,0,5.96,1.6,5.96,5.25v1.4l-6.61,0.4c-6.56,0.4-8.91,3.55-8.91,7.81c0,4.2,2.2,8.06,8.76,8.06c2.5,0,5.3-0.85,7.56-2.5
				l0.75,2h1.95v-17.12C337.35,264.05,335.4,260.64,327.89,260.64z M333.84,281.56c-2.15,1.25-3.95,2-6.66,2
				c-4.75,0-5.3-2.7-5.3-4.95c0-2.9,1.55-4.75,5.1-5.11l6.86-0.65V281.56z"/>
			<path class="st0" d="M306.9,248.63H296.7v37.54h3.4v-15.01h6.79c9.36,0,12.56-5.41,12.56-11.26S316.26,248.63,306.9,248.63z
				 M307.35,268h-7.24v-16.21h7.24c7.06,0,8.41,4.5,8.41,8.11C315.76,263.5,314.41,268,307.35,268z"/>
		</g>
		<g>
			<g>
				<polygon class="st0" points="549.76,271.3 553.96,271.3 551.82,253.54 				"/>
				<path class="st0" d="M511.33,238.43v49.87h123.13v-49.87H511.33z M615.5,250.31h-6.73v9.38h6.73v7.58h-6.73v9.52h6.73v7.47
					h-14.16v-37.65l-5.97,37.65l-8.73,0.02c0,0-4.46-26.66-4.47-26.72v0c0.72,4.31-1.99,8.81-4.38,10.58l4.73,16.11h-0.01h-0.01
					l0.01,0.01h-0.01h-7.33h-0.01l-3.6-13.75l-1.74,0.25v13.48h-0.01h-0.01v0.01h-0.01l-14.2-0.01l-0.87-6.39h-5.82l-0.88,6.39
					h-14.46v-20.02l-3.36,20.02h-3.99l-3.41-20.02v20.02h-7.5v-41.53h9.53l3.34,21.46l3.43-21.46h9.52v38.2l5.73-38.2l9.95,0.01
					l5.54,36.87l0.03-36.87c0,0,7.56,0,7.61,0c6.85,0,9.95,5.02,10.83,6.75l-0.85-6.75h7.6l3.43,25.29l3.47-25.29h21.07V250.31z
					 M630.61,284.27h-13.82v-41.53h7.44v34.06h6.38V284.27z"/>
				<path class="st0" d="M569.84,250.16c-0.02,0-0.03,0-0.04,0v13.36c0.59,0,1.19-0.14,1.76-0.42c1.75-0.85,3.24-2.97,3.24-6.33
					C574.81,250.33,570.43,250.15,569.84,250.16z"/>
			</g>
			<g>
				<polygon class="st0" points="803.8,245.05 798.31,265.07 792.82,245.05 783.16,245.05 784.3,251.15 784.3,281.69 791.3,281.69 
					791.3,261.77 796.69,281.69 799.93,281.69 805.32,261.77 805.32,281.69 812.32,281.69 812.32,245.05 				"/>
				<rect x="742.58" y="245.05" class="st0" width="7.48" height="36.63"/>
				<path class="st0" d="M731.68,245.05h-6.67h-0.75l-10.51,0l1.13,6.1l0.04,30.53h8l8.1,0c4.11,0,5.76-1.39,5.76-5.29
					c0-11.11,0-14.88,0-25.99C736.76,247.14,735.65,245.05,731.68,245.05z M727.06,275.58h-5.05v-23.95l0-0.48l3.43,0l2.07,0.01
					c1.49,0,2.01,0.61,2.01,2.4l0,19.57C729.53,275.1,729.14,275.58,727.06,275.58z"/>
				<path class="st0" d="M659.92,260.08h-5.89c-1.99,0-2.1-0.8-2.1-1.92l-0.01-2.25c0-1.08,0-0.3,0-2.35c0-1.31,0.37-1.88,1.83-1.91
					l8.65,0l-1.14-6.58h-10.75c-5.57,0-5.59,3.57-5.59,5.32c0,0,0.01,9.53,0.01,11.07c0,4.02,2.36,4.25,5.1,4.25
					c1.1,0,3.64,0,4.76,0c1.38,0,2.05,0.28,2.05,2.02l0,5.18c0,1.77-0.46,2.2-2.23,2.21h-9.66l-1.14,6.58h9.13c1.88,0,3.75,0,5.64,0
					c3.76,0,5.44-1.52,5.44-5.11c0-5.4,0-7.53,0-12.93C664.01,261.08,662.45,260.08,659.92,260.08z"/>
				<polygon class="st0" points="686.66,251.63 687.79,245.05 665.13,245.05 666.27,251.63 672.67,251.63 672.67,281.69 
					680.15,281.69 680.14,251.63 				"/>
				<path class="st0" d="M693.16,245.05l-7.85,36.63h7.35l0.87-4.59h9.77l0.87,4.59h7.35l-7.85-36.63H693.16z M694.81,270.33
					l3.6-19.02l3.6,19.02H694.81z"/>
				<path class="st0" d="M770.75,272.97c0,2.4-0.71,2.62-2.57,2.62l-1.07,0l-1.07,0c-1.85,0-2.57-0.22-2.57-2.62v-27.91h-7.48
					c0,0,0.01,20.71,0.01,31.64c0,3.91,2.21,4.98,5.18,4.98c1.82,0,4.09,0.01,5.93,0.02c0,0,0,0,0,0s0,0,0,0
					c1.84,0,4.11-0.02,5.93-0.02c2.97,0,5.18-1.07,5.18-4.98c0-10.93,0.01-31.64,0.01-31.64h-7.48V272.97z"/>
			</g>
		</g>
	</g>
	<g>
		<path class="st0" d="M671.68,77.84c6.2,0,11.28,5.04,11.28,11.28c0,6.23-5.07,11.27-11.28,11.27c-6.23,0-11.27-5.04-11.27-11.27
			C660.41,82.88,665.45,77.84,671.68,77.84"/>
		<path class="st0" d="M700.93,77.84c6.23,0,11.27,5.04,11.27,11.28c0,6.23-5.04,11.27-11.27,11.27c-6.23,0-11.28-5.04-11.28-11.27
			C689.65,82.88,694.7,77.84,700.93,77.84"/>
		<path class="st0" d="M730.2,77.84c6.23,0,11.28,5.04,11.28,11.28c0,6.23-5.04,11.27-11.28,11.27c-6.22,0-11.27-5.05-11.27-11.27
			C718.93,82.88,723.98,77.84,730.2,77.84"/>
		<path class="st0" d="M671.68,106.11c6.2,0,11.28,5.03,11.28,11.26c0,6.24-5.07,11.29-11.28,11.29c-6.23,0-11.27-5.05-11.27-11.29
			C660.41,111.14,665.45,106.11,671.68,106.11"/>
		<path class="st0" d="M700.93,106.11c6.23,0,11.27,5.03,11.27,11.26c0,6.24-5.04,11.29-11.27,11.29c-6.23,0-11.28-5.05-11.28-11.29
			C689.65,111.14,694.7,106.11,700.93,106.11"/>
		<path class="st0" d="M718.93,117.37c0-6.23,5.05-11.26,11.27-11.26c6.23,0,11.28,5.03,11.28,11.26c0,6.24-5.05,11.29-11.28,11.29
			C723.98,128.66,718.93,123.61,718.93,117.37"/>
		<path class="st0" d="M671.68,134.54c6.2,0,11.28,5.06,11.28,11.28c0,6.23-5.07,11.26-11.28,11.26c-6.23,0-11.27-5.04-11.27-11.26
			C660.41,139.6,665.45,134.54,671.68,134.54"/>
		<path class="st0" d="M700.93,134.54c6.23,0,11.27,5.06,11.27,11.28c0,6.23-5.04,11.26-11.27,11.26c-6.23,0-11.28-5.04-11.28-11.26
			C689.65,139.6,694.7,134.54,700.93,134.54"/>
		<path class="st0" d="M718.93,145.82c0-6.22,5.04-11.28,11.27-11.28c6.23,0,11.28,5.06,11.28,11.28c0,6.23-5.04,11.26-11.28,11.26
			C723.98,157.09,718.93,152.05,718.93,145.82"/>
		<path class="st0" d="M769.26,96.13h42.72v12.79h-42.72V96.13z M820.89,77.84h-61.24c-4.26,0-8.67,3.37-8.67,9.03v30.16
			c0,6.48,4.43,9.38,8.82,9.38l8.71,0.09h43.49v12.35h-51.93c-0.06,0-0.12,0.01-0.18,0.01c-5,0.05-9.03,4.12-9.03,9.13
			c0,4.68,3.53,8.54,8.08,9.06c0,0.03,0,0.05,0,0.08h61.96c8.92,0,9.38-7.82,9.38-9.38V87.4C830.27,80.83,825.4,77.84,820.89,77.84z
			"/>
	</g>
</g>
</svg>
