<?xml version="1.0" encoding="utf-8"?>
<!-- Generator: Adobe Illustrator 24.0.2, SVG Export Plug-In . SVG Version: 6.00 Build 0)  -->
<svg version="1.1" id="Layer_1" xmlns="http://www.w3.org/2000/svg" xmlns:xlink="http://www.w3.org/1999/xlink" x="0px" y="0px"
	 viewBox="0 0 800 950" style="enable-background:new 0 0 800 950;" xml:space="preserve">
<style type="text/css">
	.st0{clip-path:url(#SVGID_2_);}
	.st1{opacity:0.4;}
	.st2{opacity:0;fill:none;}
	.st3{opacity:9.803922e-03;fill:#3F3D3E;}
	.st4{opacity:1.960784e-02;fill:#3F3D3E;}
	.st5{opacity:2.941176e-02;fill:#3F3D3E;}
	.st6{opacity:3.921569e-02;fill:#3F3D3E;}
	.st7{opacity:4.901961e-02;fill:#3F3D3E;}
	.st8{opacity:5.882353e-02;fill:#3F3D3E;}
	.st9{opacity:6.862745e-02;fill:#3F3D3E;}
	.st10{opacity:7.843138e-02;fill:#3F3D3E;}
	.st11{opacity:8.823530e-02;fill:#3F3D3E;}
	.st12{opacity:9.803922e-02;fill:#3F3D3E;}
	.st13{opacity:0.1078;fill:#3F3D3E;}
	.st14{opacity:0.1176;fill:#3F3D3E;}
	.st15{opacity:0.1275;fill:#3F3D3E;}
	.st16{opacity:0.1373;fill:#3F3D3E;}
	.st17{opacity:0.1471;fill:#3F3D3E;}
	.st18{opacity:0.1569;fill:#3F3D3E;}
	.st19{opacity:0.1667;fill:#3F3D3E;}
	.st20{opacity:0.1765;fill:#3F3D3E;}
	.st21{opacity:0.1863;fill:#3F3D3E;}
	.st22{opacity:0.1961;fill:#3F3D3E;}
	.st23{opacity:0.2059;fill:#3F3D3E;}
	.st24{opacity:0.2157;fill:#3F3D3E;}
	.st25{opacity:0.2255;fill:#3F3D3E;}
	.st26{opacity:0.2353;fill:#3F3D3E;}
	.st27{opacity:0.2451;fill:#3F3D3E;}
	.st28{opacity:0.2549;fill:#3F3D3E;}
	.st29{opacity:0.2647;fill:#3F3D3E;}
	.st30{opacity:0.2745;fill:#3F3D3E;}
	.st31{opacity:0.2843;fill:#3F3D3E;}
	.st32{opacity:0.2941;fill:#3F3D3E;}
	.st33{opacity:0.3039;fill:#3F3D3E;}
	.st34{opacity:0.3137;fill:#3F3D3E;}
	.st35{opacity:0.3235;fill:#3F3D3E;}
	.st36{opacity:0.3333;fill:#3F3D3E;}
	.st37{opacity:0.3431;fill:#3F3D3E;}
	.st38{opacity:0.3529;fill:#3F3D3E;}
	.st39{opacity:0.3627;fill:#3F3D3E;}
	.st40{opacity:0.3725;fill:#3F3D3E;}
	.st41{opacity:0.3824;fill:#3F3D3E;}
	.st42{opacity:0.3922;fill:#3F3D3E;}
	.st43{opacity:0.402;fill:#3F3D3E;}
	.st44{opacity:0.4118;fill:#3F3D3E;}
	.st45{opacity:0.4216;fill:#3F3D3E;}
	.st46{opacity:0.4314;fill:#3F3D3E;}
	.st47{opacity:0.4412;fill:#3F3D3E;}
	.st48{opacity:0.451;fill:#3F3D3E;}
	.st49{opacity:0.4608;fill:#3F3D3E;}
	.st50{opacity:0.4706;fill:#3F3D3E;}
	.st51{opacity:0.4804;fill:#3F3D3E;}
	.st52{opacity:0.4902;fill:#3F3D3E;}
	.st53{opacity:0.5;fill:#3F3D3E;}
	.st54{fill:#DDE8F9;}
	.st55{clip-path:url(#SVGID_4_);}
	.st56{fill:#DE9EC6;}
	.st57{clip-path:url(#SVGID_6_);}
	.st58{fill:#BF80B8;}
	.st59{fill:#30363D;}
	.st60{fill:#E2BBF9;}
	.st61{fill:#CED8E7;}
	.st62{fill:#E1EBF0;}
	.st63{fill:#9474AA;}
	.st64{fill:#FFFFFF;}
	.st65{opacity:0.25;clip-path:url(#SVGID_4_);}
	.st66{fill:url(#SVGID_7_);}
	.st67{fill:url(#SVGID_8_);}
	.st68{fill:url(#SVGID_9_);}
	.st69{fill:url(#SVGID_10_);}
	.st70{fill:url(#SVGID_11_);}
	.st71{fill:#F88CCC;}
	.st72{fill:#84DAF3;}
	.st73{opacity:0.2;}
	.st74{fill:#181D3C;}
	.st75{opacity:0.49;fill:#EBEDEF;}
	.st76{fill:#262B9E;}
	.st77{fill-rule:evenodd;clip-rule:evenodd;fill:#053D71;}
	.st78{fill:#2F1590;}
	.st79{fill:#211175;}
	.st80{fill:#FCC6B3;}
	.st81{fill:#FAA789;}
	.st82{fill:#FFA42F;}
	.st83{fill:#F94C1B;}
	.st84{fill-rule:evenodd;clip-rule:evenodd;fill:#054C8D;}
	.st85{fill-rule:evenodd;clip-rule:evenodd;fill:#05356E;}
	.st86{fill-rule:evenodd;clip-rule:evenodd;fill:#001630;}
	.st87{fill-rule:evenodd;clip-rule:evenodd;fill:#021324;}
	.st88{fill:#E5E5E5;}
	.st89{opacity:0.7;fill:#BBC1E5;}
	.st90{opacity:0.3;}
	.st91{fill:#231F20;}
	.st92{fill:#5661EC;}
	.st93{fill:#C39071;}
	.st94{fill:#8D6B55;}
	.st95{fill:#702012;}
	.st96{fill:#BBC1E5;}
	.st97{opacity:0.48;fill:#DDE8F9;}
</style>
<g>
	<defs>
		<rect id="SVGID_1_" x="-0.1" y="-1.6" width="800" height="951.6"/>
	</defs>
	<clipPath id="SVGID_2_">
		<use xlink:href="#SVGID_1_"  style="overflow:visible;"/>
	</clipPath>
	<g class="st0">
		<g class="st1">
			<ellipse class="st2" cx="607.3" cy="736.2" rx="172.4" ry="33.5"/>
			<ellipse class="st3" cx="607.4" cy="736" rx="171.1" ry="33"/>
			<ellipse class="st4" cx="607.5" cy="735.8" rx="169.8" ry="32.5"/>
			<ellipse class="st5" cx="607.5" cy="735.7" rx="168.4" ry="32"/>
			<ellipse class="st6" cx="607.6" cy="735.5" rx="167.1" ry="31.5"/>
			<ellipse class="st7" cx="607.7" cy="735.4" rx="165.8" ry="31"/>
			<ellipse class="st8" cx="607.7" cy="735.2" rx="164.4" ry="30.5"/>
			<ellipse class="st9" cx="607.8" cy="735" rx="163.1" ry="30"/>
			<ellipse class="st10" cx="607.9" cy="734.9" rx="161.7" ry="29.5"/>
			<ellipse class="st11" cx="607.9" cy="734.7" rx="160.4" ry="29"/>
			<ellipse class="st12" cx="608" cy="734.6" rx="159.1" ry="28.5"/>
			<ellipse class="st13" cx="608.1" cy="734.4" rx="157.7" ry="28"/>
			<ellipse class="st14" cx="608.1" cy="734.2" rx="156.4" ry="27.5"/>
			<ellipse class="st15" cx="608.2" cy="734.1" rx="155" ry="27"/>
			<ellipse class="st16" cx="608.3" cy="733.9" rx="153.7" ry="26.5"/>
			<ellipse class="st17" cx="608.3" cy="733.8" rx="152.4" ry="26"/>
			<ellipse class="st18" cx="608.4" cy="733.6" rx="151" ry="25.5"/>
			<ellipse class="st19" cx="608.5" cy="733.4" rx="149.7" ry="25"/>
			<ellipse class="st20" cx="608.5" cy="733.3" rx="148.3" ry="24.5"/>
			<ellipse class="st21" cx="608.6" cy="733.1" rx="147" ry="24"/>
			<ellipse class="st22" cx="608.7" cy="733" rx="145.7" ry="23.5"/>
			<ellipse class="st23" cx="608.7" cy="732.8" rx="144.3" ry="23"/>
			<ellipse class="st24" cx="608.8" cy="732.6" rx="143" ry="22.5"/>
			<ellipse class="st25" cx="608.9" cy="732.5" rx="141.7" ry="22"/>
			<ellipse class="st26" cx="609" cy="732.3" rx="140.3" ry="21.5"/>
			<ellipse class="st27" cx="609" cy="732.2" rx="139" ry="21"/>
			<ellipse class="st28" cx="609.1" cy="732" rx="137.6" ry="20.5"/>
			<ellipse class="st29" cx="609.2" cy="731.8" rx="136.3" ry="20.1"/>
			<ellipse class="st30" cx="609.2" cy="731.7" rx="135" ry="19.6"/>
			<ellipse class="st31" cx="609.3" cy="731.5" rx="133.6" ry="19.1"/>
			<ellipse class="st32" cx="609.4" cy="731.4" rx="132.3" ry="18.6"/>
			<ellipse class="st33" cx="609.4" cy="731.2" rx="130.9" ry="18.1"/>
			<ellipse class="st34" cx="609.5" cy="731" rx="129.6" ry="17.6"/>
			<ellipse class="st35" cx="609.6" cy="730.9" rx="128.3" ry="17.1"/>
			<ellipse class="st36" cx="609.6" cy="730.7" rx="126.9" ry="16.6"/>
			<ellipse class="st37" cx="609.7" cy="730.6" rx="125.6" ry="16.1"/>
			<ellipse class="st38" cx="609.8" cy="730.4" rx="124.2" ry="15.6"/>
			<ellipse class="st39" cx="609.8" cy="730.3" rx="122.9" ry="15.1"/>
			<ellipse class="st40" cx="609.9" cy="730.1" rx="121.6" ry="14.6"/>
			<ellipse class="st41" cx="610" cy="729.9" rx="120.2" ry="14.1"/>
			<ellipse class="st42" cx="610" cy="729.8" rx="118.9" ry="13.6"/>
			<ellipse class="st43" cx="610.1" cy="729.6" rx="117.6" ry="13.1"/>
			<ellipse class="st44" cx="610.2" cy="729.5" rx="116.2" ry="12.6"/>
			<ellipse class="st45" cx="610.2" cy="729.3" rx="114.9" ry="12.1"/>
			<ellipse class="st46" cx="610.3" cy="729.1" rx="113.5" ry="11.6"/>
			<ellipse class="st47" cx="610.4" cy="729" rx="112.2" ry="11.1"/>
			<ellipse class="st48" cx="610.4" cy="728.8" rx="110.9" ry="10.6"/>
			<ellipse class="st49" cx="610.5" cy="728.7" rx="109.5" ry="10.1"/>
			<ellipse class="st50" cx="610.6" cy="728.5" rx="108.2" ry="9.6"/>
			<ellipse class="st51" cx="610.7" cy="728.3" rx="106.8" ry="9.1"/>
			<ellipse class="st52" cx="610.7" cy="728.2" rx="105.5" ry="8.6"/>
			<ellipse class="st53" cx="610.8" cy="728" rx="104.2" ry="8.1"/>
		</g>
		<path class="st54" d="M590.1,380.6c0.1-1.1,0.2-2.2,0.2-3.4c0-15.8-12.8-28.5-28.5-28.5c-4.5,0-8.7,1-12.4,2.9
			c-4.3-14.9-18-25.7-34.3-25.7c-17.8,0-32.5,13-35.3,30c-9.1,1.6-17.2,6.4-22.9,13.3c-1.9-0.6-3.9-0.9-6-0.9
			c-10.7,0-19.3,8.6-19.3,19.3c0,10.5,8.4,19.1,18.9,19.3c0,0,0,0,0,0h55.7h16.1h7h36.3h23c0,0,0-0.1,0-0.1c0.4,0,0.7,0.1,1.1,0.1
			c7.2,0,13.1-5.8,13.1-13.1C602.7,386.5,597.1,380.8,590.1,380.6z"/>
		<g>
			<defs>
				
					<rect id="SVGID_3_" x="-155.3" y="52.9" transform="matrix(-1 -1.224647e-16 1.224647e-16 -1 695.1096 1005.3177)" width="1005.8" height="899.4"/>
			</defs>
			<clipPath id="SVGID_4_">
				<use xlink:href="#SVGID_3_"  style="overflow:visible;"/>
			</clipPath>
			<g class="st55">
				<circle class="st56" cx="343.2" cy="546.5" r="97.5"/>
				<g>
					<defs>
						<rect id="SVGID_5_" x="329.3" y="191.1" width="40.4" height="307"/>
					</defs>
					<clipPath id="SVGID_6_">
						<use xlink:href="#SVGID_5_"  style="overflow:visible;"/>
					</clipPath>
					<g class="st57">
						<polygon class="st56" points="346.8,209.6 336.9,378.6 326.9,691.6 346.8,691.6 366.8,691.6 356.8,378.6 						"/>
					</g>
				</g>
				<path class="st58" d="M304,513c0,21.4,17.3,38.8,38.8,38.8c21.4,0,38.8-17.4,38.8-38.8c0-21.4-17.4-38.8-38.8-38.8
					C321.3,474.2,304,491.6,304,513z"/>
				<path class="st58" d="M322.9,539.6c7.3,0,14.1,2.1,19.9,5.7c0.3-31.4,25.8-56.7,57.3-56.7c24.7,0,45.7,15.6,53.7,37.5
					c6.1-2.2,12.7-3.5,19.5-3.5c24.4,0,45.2,15.3,53.5,36.8c-5.1,3.9-11.3,6.3-18.2,6.4c0,0,0,0,0,0h-89.1h-25.7h-11.1h-58.2h-36.9
					c0-0.1,0-0.1-0.1-0.2c-0.1,0-0.3,0-0.4,0C291.9,550.5,306.1,539.6,322.9,539.6z"/>
				<path class="st58" d="M170.3,529.6c-0.2-1.5-0.3-3-0.3-4.6c0-21.4,17.3-38.8,38.7-38.8c6.1,0,11.8,1.4,16.9,3.9
					c5.9-20.2,24.5-35,46.6-35c24.2,0,44.1,17.6,47.9,40.7c12.4,2.2,23.3,8.7,31.1,18c2.5-0.8,5.3-1.3,8.1-1.3
					c14.5,0,26.2,11.7,26.2,26.2c0,14.3-11.4,25.9-25.7,26.2c0,0,0,0,0,0h-75.6h-21.8h-9.5h-49.3h-31.3c0,0,0-0.1-0.1-0.1
					c-0.5,0-1,0.1-1.5,0.1c-9.8,0-17.8-7.9-17.8-17.7C153.1,537.7,160.7,529.9,170.3,529.6z"/>
				<g>
					<g>
						<path class="st59" d="M346.8,203c-6.1,0-11,8.2-11,18.3c0,1.3,0.1,2.5,0.2,3.7h21.6c0.1-1.2,0.2-2.5,0.2-3.7
							C357.9,211.2,352.9,203,346.8,203z"/>
						<path class="st60" d="M344,203c-4.5,0-8.2,8.2-8.2,18.3c0,1.3,0.1,2.5,0.2,3.7h16c0.1-1.2,0.2-2.5,0.2-3.7
							C352.1,211.2,348.5,203,344,203z"/>
					</g>
					<g>
						<g>
							<path class="st60" d="M336.4,159.1c0,19.5-10,36.5-24.8,45.3c-0.4,0.4-0.9,0.8-1.3,1.2c-2.7,2.5-1.8,14.3-1.8,14.3h28.1
								c0,0,0-61.2,0-68.1c0,1.1-0.1,2.4-0.3,3.9C336.4,156.8,336.4,158,336.4,159.1z"/>
							<path class="st61" d="M336.5,181.9c-4.5,11.4-12.9,20.8-23.7,26.7c-0.5,0.4-1,0.8-1.4,1.2c-1.8,1.5-2.2,6.5-2.2,10.1h27.3
								C336.5,219.9,336.5,200.2,336.5,181.9z"/>
							<path class="st62" d="M311.7,218.5c-0.4,0.3-0.8,0.8-1.1,1.4h25.9c0,0,0-10.1,0-22.5c-5.4,8.4-13.5,15.3-23.2,19.9
								C312.8,217.7,312.3,218.1,311.7,218.5z"/>
						</g>
						<g>
							<path class="st63" d="M357.2,159.1c0,19.5,10,36.5,24.8,45.3c0.4,0.4,0.9,0.8,1.3,1.2c2.7,2.5,1.8,14.3,1.8,14.3h-28.1
								c0,0,0-61.2,0-68.1c0,1.1,0.1,2.4,0.3,3.9C357.3,156.8,357.2,158,357.2,159.1z"/>
							<path class="st61" d="M357.1,181.9c4.5,11.4,12.9,20.8,23.7,26.7c0.5,0.4,1,0.8,1.4,1.2c1.8,1.5,2.2,6.5,2.2,10.1h-27.3
								C357.1,219.9,357.1,200.2,357.1,181.9z"/>
							<path class="st62" d="M381.9,218.5c0.4,0.3,0.8,0.8,1.1,1.4h-25.9c0,0,0-10.1,0-22.5c5.4,8.4,13.5,15.3,23.2,19.9
								C380.8,217.7,381.4,218.1,381.9,218.5z"/>
						</g>
					</g>
					<g>
						<path class="st62" d="M357.8,219.9v-70.4c0-6.4-4.8-27.3-11-30.8c-6.2,3.4-11,24.3-11,30.8v70.4H357.8z"/>
						<path class="st61" d="M346.8,118.7c-0.1,0-0.1,0.1-0.2,0.1v101h11.2v-70.4C357.8,143.1,353,122.2,346.8,118.7z"/>
						<path class="st60" d="M339,133.1h15.7c-2-6.5-4.7-12.6-7.9-14.4C343.7,120.5,340.9,126.6,339,133.1z"/>
						<path class="st63" d="M346.6,133.1h8c-2-6.5-4.7-12.6-7.9-14.4c-0.1,0-0.1,0.1-0.2,0.1V133.1z"/>
					</g>
					<path class="st63" d="M353.6,144.8c-0.5,1-1.9,0.6-3.7,0c-2-0.8-4.2-0.8-6.3,0c-1.8,0.7-3.2,1-3.7,0l0,0
						c-0.5-1,0.6-3.4,2.9-4.3c2.5-1,5.3-1,7.8,0C353,141.3,354.1,143.8,353.6,144.8L353.6,144.8z"/>
					<g>
						<g>
							<path class="st60" d="M324.4,203c-2.7,0-4.8,8.2-4.8,18.3c0,1.3,0,2.5,0.1,3.7h9.5c0.1-1.2,0.1-2.5,0.1-3.7
								C329.2,211.2,327.1,203,324.4,203z"/>
							<path class="st63" d="M324.4,203c-0.7,0-1.4,0.6-2,1.6c2.2,1.2,3.9,8.3,3.9,17c0,1.2,0,2.4-0.1,3.5h2.9
								c0.1-1.2,0.1-2.5,0.1-3.7C329.2,211.2,327.1,203,324.4,203z"/>
						</g>
						<g>
							<path class="st60" d="M369.2,203c-2.7,0-4.8,8.2-4.8,18.3c0,1.3,0,2.5,0.1,3.7h9.5c0.1-1.2,0.1-2.5,0.1-3.7
								C374.1,211.2,371.9,203,369.2,203z"/>
							<path class="st63" d="M369.2,203c-0.7,0-1.4,0.6-2,1.6c2.2,1.2,3.9,8.3,3.9,17c0,1.2,0,2.4-0.1,3.5h2.9
								c0.1-1.2,0.1-2.5,0.1-3.7C374.1,211.2,371.9,203,369.2,203z"/>
						</g>
					</g>
				</g>
			</g>
			<g class="st55">
				<path class="st64" d="M-196.5,806.9V363.1c19.2,0,26.1,0.4,45.1,0.4c8.4,0,9.4,5.2,9.4,13.8c0,7.4-0.2,60.9-0.2,79.6
					c0,3.6,1.3,6.1,4.6,6.1c10.2,0,13.8,0.2,18.6,0.2c6.2,0,6.4-3.3,6.4-9.8c0-9.9,1.7-121.2,1.7-132.1c0-9,1.4-12.2,9.1-12.2
					c8,0,69.4,0,80,0c6,0,7.5,6.3,7.5,9.5c0,15-2.1,95.4-2.1,108.6c0,3.7,2.7,5.2,5.5,5.2c5.7,0,12.5,0,19.6,0
					c2.6,0,4.8-2.1,4.9-4.7l0.8-69.4c0-2.8,2.4-5.1,5.2-5l58.5,1.2c3.4,0.1,6.1,2.8,6.1,6.2c0,27.5,0.2,139,0.2,161.4
					c0,3.6,0.9,5.1,4.3,5.1c1.9,0,12.6,0,18,0c1.8,0,3.2-0.6,3.2-2.5c0-4.4,0-8.1,0-13.4c0-4.4,1.8-4.8,6.7-4.8c3.2,0,13.4,0,19.4,0
					c2.5,0,4.5-2,4.5-4.4c0.1-7.1,0.4-20.6,0.4-25c0-1.1,0.7-4.4,3.9-4.4c16.6,0,50.5,0.3,69,0.3c4.7,0,6.2,2,6.2,7.7
					c0,24.9-0.1,104.6-0.1,114.5c0,3.2,3.6,6.1,6.3,6.1c12.4,0,39.4,0.4,50.8,0.4c4,0,5.2-4,5.2-5.5c0-9.2,0-27.9,0-38.5
					c0-3.8-0.1-6.8,6-6.8c21.1,0,53.6,0.2,74,0.4c5.9,0.1,13-0.7,13,6.4c0,6.7-0.1,19.1-0.1,24.5c0,4.6,0.4,8.6,6.8,8.6
					c6,0,4.9-0.1,13.8-0.1c7.4,0,9.5,3.6,9.5,10.4c0,21.7,0.3,164.2,0,205.4L-196.5,806.9z"/>
				<path class="st64" d="M140.5,502.4v304.5h16.8V477.6c0-1.9,0.4-4.5,4-4.6c3.3-0.1-14-0.2-16.5-0.1c-3.2,0.1-3.9,3.3-3.9,4.4
					C140.9,481.8,140.7,495.3,140.5,502.4z"/>
				<path class="st64" d="M282.3,557.7v249.1h26.9V558c0-4.2-0.1-6.6,4.4-6.7c0.7,0-18.5,0-25.2,0
					C282.3,551.2,282.3,554.1,282.3,557.7z"/>
				<path class="st64" d="M-112.6,453.4v353.4h23V309.1h-12.2c-7.7,0-9.1,3.2-9.1,12.2C-110.8,332.2-112.6,443.5-112.6,453.4z"/>
				
					<rect x="-36.7" y="527.4" transform="matrix(-1 -1.224647e-16 1.224647e-16 -1 -23.1303 1334.2729)" class="st64" width="50.3" height="279.5"/>
				<path class="st64" d="M14.8,531.8h93.9c0.7,0,1.2-0.5,1.2-1.2v-1.9c0-0.7-0.5-1.2-1.2-1.2H14.8c-0.7,0-1.2,0.5-1.2,1.2v1.9
					C13.6,531.2,14.1,531.8,14.8,531.8z"/>
				<path class="st64" d="M180.6,495.1h38c0.8,0,1.5-0.7,1.5-1.5v-5.6c0-0.8-0.7-1.5-1.5-1.5h-38c-0.8,0-1.5,0.7-1.5,1.5v5.6
					C179.1,494.4,179.7,495.1,180.6,495.1z"/>
				<path class="st64" d="M163.5,531.3h55.2c0.7,0,1.3-0.6,1.3-1.3v-6c0-0.7-0.6-1.3-1.3-1.3h-55.2c-0.7,0-1.3,0.6-1.3,1.3v6
					C162.2,530.7,162.8,531.3,163.5,531.3z"/>
				<path class="st64" d="M163.3,567.6H207c0.6,0,1.2-0.5,1.2-1.2v-6.3c0-0.6-0.5-1.2-1.2-1.2h-43.7c-0.6,0-1.2,0.5-1.2,1.2v6.3
					C162.2,567,162.7,567.6,163.3,567.6z"/>
				<g>
					<g>
						<path class="st64" d="M330.4,577.8h9.5c0.7,0,1.2-0.6,1.2-1.2v-17.1c0-0.7-0.6-1.2-1.2-1.2h-9.5c-0.7,0-1.2,0.6-1.2,1.2v17.1
							C329.1,577.3,329.7,577.8,330.4,577.8z"/>
					</g>
					<g>
						<path class="st64" d="M314.8,636.8h9.5c0.7,0,1.2-0.6,1.2-1.2v-17.1c0-0.7-0.6-1.2-1.2-1.2h-9.5c-0.7,0-1.2,0.6-1.2,1.2v17.1
							C313.5,636.3,314.1,636.8,314.8,636.8z"/>
					</g>
					<g>
						<path class="st64" d="M345.9,666.4h9.5c0.7,0,1.2-0.6,1.2-1.2V648c0-0.7-0.6-1.2-1.2-1.2h-9.5c-0.7,0-1.2,0.6-1.2,1.2v17.1
							C344.7,665.8,345.3,666.4,345.9,666.4z"/>
					</g>
					<g>
						<path class="st64" d="M330.4,695.9h9.5c0.7,0,1.2-0.6,1.2-1.2v-17.1c0-0.7-0.6-1.2-1.2-1.2h-9.5c-0.7,0-1.2,0.6-1.2,1.2v17.1
							C329.1,695.3,329.7,695.9,330.4,695.9z"/>
						<path class="st64" d="M314.8,695.9h9.5c0.7,0,1.2-0.6,1.2-1.2v-17.1c0-0.7-0.6-1.2-1.2-1.2h-9.5c-0.7,0-1.2,0.6-1.2,1.2v17.1
							C313.5,695.3,314.1,695.9,314.8,695.9z"/>
					</g>
					<g>
						<path class="st64" d="M345.9,725.4h9.5c0.7,0,1.2-0.6,1.2-1.2V707c0-0.7-0.6-1.2-1.2-1.2h-9.5c-0.7,0-1.2,0.6-1.2,1.2v17.1
							C344.7,724.8,345.3,725.4,345.9,725.4z"/>
						<path class="st64" d="M314.8,725.4h9.5c0.7,0,1.2-0.6,1.2-1.2V707c0-0.7-0.6-1.2-1.2-1.2h-9.5c-0.7,0-1.2,0.6-1.2,1.2v17.1
							C313.5,724.8,314.1,725.4,314.8,725.4z"/>
					</g>
				</g>
				<g>
					<g>
						<path class="st64" d="M56.9,569.1h11.6c0.7,0,1.2-0.5,1.2-1.2v-17.2c0-0.7-0.5-1.2-1.2-1.2H56.9c-0.7,0-1.2,0.5-1.2,1.2v17.2
							C55.7,568.6,56.3,569.1,56.9,569.1z"/>
						<path class="st64" d="M18.8,569.1h11.6c0.7,0,1.2-0.5,1.2-1.2v-17.2c0-0.7-0.5-1.2-1.2-1.2H18.8c-0.7,0-1.2,0.5-1.2,1.2v17.2
							C17.6,568.6,18.2,569.1,18.8,569.1z"/>
					</g>
					<g>
						<path class="st64" d="M95,630.3h11.6c0.7,0,1.2-0.5,1.2-1.2v-17.2c0-0.7-0.5-1.2-1.2-1.2H95c-0.7,0-1.2,0.5-1.2,1.2v17.2
							C93.8,629.7,94.4,630.3,95,630.3z"/>
						<path class="st64" d="M56.9,630.3h11.6c0.7,0,1.2-0.5,1.2-1.2v-17.2c0-0.7-0.5-1.2-1.2-1.2H56.9c-0.7,0-1.2,0.5-1.2,1.2v17.2
							C55.7,629.7,56.3,630.3,56.9,630.3z"/>
						<path class="st64" d="M18.8,630.3h11.6c0.7,0,1.2-0.5,1.2-1.2v-17.2c0-0.7-0.5-1.2-1.2-1.2H18.8c-0.7,0-1.2,0.5-1.2,1.2v17.2
							C17.6,629.7,18.2,630.3,18.8,630.3z"/>
					</g>
					<g>
						<path class="st64" d="M37.9,660.8h11.6c0.7,0,1.2-0.5,1.2-1.2v-17.2c0-0.7-0.5-1.2-1.2-1.2H37.9c-0.7,0-1.2,0.5-1.2,1.2v17.2
							C36.7,660.3,37.2,660.8,37.9,660.8z"/>
					</g>
					<g>
						<path class="st64" d="M56.9,691.4h11.6c0.7,0,1.2-0.5,1.2-1.2V673c0-0.7-0.5-1.2-1.2-1.2H56.9c-0.7,0-1.2,0.5-1.2,1.2v17.2
							C55.7,690.9,56.3,691.4,56.9,691.4z"/>
					</g>
				</g>
				<rect x="17.6" y="364.4" class="st64" width="64.1" height="5.4"/>
				<rect x="41.4" y="380" class="st64" width="40.4" height="5.4"/>
				<rect x="17.6" y="395.6" class="st64" width="53.8" height="5.4"/>
				<rect x="17.6" y="457.9" class="st64" width="32.1" height="5.4"/>
				<rect x="36.7" y="473.5" class="st64" width="45.1" height="5.4"/>
				<rect x="31.7" y="504.7" class="st64" width="50.1" height="5.4"/>
			</g>
			<g class="st65">
				
					<linearGradient id="SVGID_7_" gradientUnits="userSpaceOnUse" x1="-7855.4619" y1="309.129" x2="-7855.4619" y2="806.8737" gradientTransform="matrix(-1 0 0 1 -7715 0)">
					<stop  offset="2.149471e-03" style="stop-color:#FF63BA"/>
					<stop  offset="0.1911" style="stop-color:#FF42AB;stop-opacity:0.8485"/>
					<stop  offset="0.3974" style="stop-color:#FF259E;stop-opacity:0.6831"/>
					<stop  offset="0.6028" style="stop-color:#FF1195;stop-opacity:0.5185"/>
					<stop  offset="0.8049" style="stop-color:#FF048F;stop-opacity:0.3564"/>
					<stop  offset="1" style="stop-color:#FF008D;stop-opacity:0.2"/>
				</linearGradient>
				<path class="st66" d="M-160.4,806.9V363.1c19.2,0,26.1,0.4,45.1,0.4c8.4,0,9.4,5.2,9.4,13.8c0,7.4-0.2,60.9-0.2,79.6
					c0,3.6,1.3,6.1,4.6,6.1c10.2,0,13.8,0.2,18.6,0.2c6.2,0,6.4-3.3,6.4-9.8c0-9.9,1.7-121.2,1.7-132.1c0-9,1.4-12.2,9.1-12.2
					c8,0,69.4,0,80,0c6,0,7.5,6.3,7.5,9.5c0,15-2.1,95.4-2.1,108.6c0,3.7,2.7,5.2,5.5,5.2c5.7,0,12.5,0,19.6,0
					c2.6,0,4.8-2.1,4.9-4.7l0.8-69.4c0-2.8,2.4-5.1,5.2-5l58.5,1.2c3.4,0.1,6.1,2.8,6.1,6.2c0,27.5,0.2,139,0.2,161.4
					c0,3.6,0.9,5.1,4.3,5.1c1.9,0,12.6,0,18,0c1.8,0,3.2-0.6,3.2-2.5c0-4.4,0-8.1,0-13.4c0-4.4,1.8-4.8,6.7-4.8c3.2,0,13.4,0,19.4,0
					c2.5,0,4.5-2,4.5-4.4c0.1-7.1,0.4-20.6,0.4-25c0-1.1,0.7-4.4,3.9-4.4c16.6,0,50.5,0.3,69,0.3c4.7,0,6.2,2,6.2,7.7
					c0,24.9-0.1,104.6-0.1,114.5c0,3.2,3.6,6.1,6.3,6.1c12.4,0,39.4,0.4,50.8,0.4c4,0,5.2-4,5.2-5.5c0-9.2,0-27.9,0-38.5
					c0-3.8-0.1-6.8,6-6.8c21.1,0,53.6,0.2,74,0.4c5.9,0.1,13-0.7,13,6.4c0,6.7-0.1,19.1-0.1,24.5c0,4.6,0.4,8.6,6.8,8.6
					c6,0,4.9-0.1,13.8-0.1c7.4,0,9.5,3.6,9.5,10.4c0,21.7,0.3,164.2,0,205.4L-160.4,806.9z"/>
				
					<linearGradient id="SVGID_8_" gradientUnits="userSpaceOnUse" x1="-7902.1558" y1="472.9378" x2="-7902.1558" y2="806.8679" gradientTransform="matrix(-1 0 0 1 -7715 0)">
					<stop  offset="0" style="stop-color:#9E1193"/>
					<stop  offset="6.606942e-02" style="stop-color:#A5269C"/>
					<stop  offset="0.2244" style="stop-color:#B353B0"/>
					<stop  offset="0.3837" style="stop-color:#BE79C1"/>
					<stop  offset="0.5418" style="stop-color:#C796CE"/>
					<stop  offset="0.698" style="stop-color:#CDABD7"/>
					<stop  offset="0.8517" style="stop-color:#D1B7DC"/>
					<stop  offset="1" style="stop-color:#D2BBDE"/>
				</linearGradient>
				<path class="st67" d="M176.5,502.4v304.5h16.8V477.6c0-1.9,0.4-4.5,4-4.6c3.3-0.1-14-0.2-16.5-0.1c-3.2,0.1-3.9,3.3-3.9,4.4
					C177,481.8,176.7,495.3,176.5,502.4z"/>
				
					<linearGradient id="SVGID_9_" gradientUnits="userSpaceOnUse" x1="-8048.9043" y1="551.2286" x2="-8048.9043" y2="806.8679" gradientTransform="matrix(-1 0 0 1 -7715 0)">
					<stop  offset="0" style="stop-color:#9E1193"/>
					<stop  offset="6.606942e-02" style="stop-color:#A5269C"/>
					<stop  offset="0.2244" style="stop-color:#B353B0"/>
					<stop  offset="0.3837" style="stop-color:#BE79C1"/>
					<stop  offset="0.5418" style="stop-color:#C796CE"/>
					<stop  offset="0.698" style="stop-color:#CDABD7"/>
					<stop  offset="0.8517" style="stop-color:#D1B7DC"/>
					<stop  offset="1" style="stop-color:#D2BBDE"/>
				</linearGradient>
				<path class="st68" d="M318.3,557.7v249.1h26.9V558c0-4.2-0.1-6.6,4.4-6.7c0.7,0-18.5,0-25.2,0
					C318.3,551.2,318.3,554.1,318.3,557.7z"/>
				
					<linearGradient id="SVGID_10_" gradientUnits="userSpaceOnUse" x1="-7649.9414" y1="552.5627" x2="-7649.9414" y2="1050.2986" gradientTransform="matrix(-1 0 0 1 -7715 0)">
					<stop  offset="0" style="stop-color:#9E1193"/>
					<stop  offset="6.606942e-02" style="stop-color:#A5269C"/>
					<stop  offset="0.2244" style="stop-color:#B353B0"/>
					<stop  offset="0.3837" style="stop-color:#BE79C1"/>
					<stop  offset="0.5418" style="stop-color:#C796CE"/>
					<stop  offset="0.698" style="stop-color:#CDABD7"/>
					<stop  offset="0.8517" style="stop-color:#D1B7DC"/>
					<stop  offset="1" style="stop-color:#D2BBDE"/>
				</linearGradient>
				<path class="st69" d="M-76.5,453.4v353.4h23V309.1h-12.2c-7.7,0-9.1,3.2-9.1,12.2C-74.8,332.2-76.5,443.5-76.5,453.4z"/>
				
					<linearGradient id="SVGID_11_" gradientUnits="userSpaceOnUse" x1="-7739.4531" y1="527.3994" x2="-7739.4531" y2="806.8736" gradientTransform="matrix(-1 0 0 1 -7715 0)">
					<stop  offset="0" style="stop-color:#9E1193"/>
					<stop  offset="6.606942e-02" style="stop-color:#A5269C"/>
					<stop  offset="0.2244" style="stop-color:#B353B0"/>
					<stop  offset="0.3837" style="stop-color:#BE79C1"/>
					<stop  offset="0.5418" style="stop-color:#C796CE"/>
					<stop  offset="0.698" style="stop-color:#CDABD7"/>
					<stop  offset="0.8517" style="stop-color:#D1B7DC"/>
					<stop  offset="1" style="stop-color:#D2BBDE"/>
				</linearGradient>
				<polygon class="st70" points="-0.7,806.9 49.6,806.9 49.6,527.4 -0.7,527.4 				"/>
				<path class="st64" d="M50.8,531.8h93.9c0.7,0,1.2-0.5,1.2-1.2v-1.9c0-0.7-0.5-1.2-1.2-1.2H50.8c-0.7,0-1.2,0.5-1.2,1.2v1.9
					C49.6,531.2,50.2,531.8,50.8,531.8z"/>
				<path class="st64" d="M216.6,495.1h38c0.8,0,1.5-0.7,1.5-1.5v-5.6c0-0.8-0.7-1.5-1.5-1.5h-38c-0.8,0-1.5,0.7-1.5,1.5v5.6
					C215.1,494.4,215.8,495.1,216.6,495.1z"/>
				<path class="st71" d="M199.5,531.3h55.2c0.7,0,1.3-0.6,1.3-1.3v-6c0-0.7-0.6-1.3-1.3-1.3h-55.2c-0.7,0-1.3,0.6-1.3,1.3v6
					C198.2,530.7,198.8,531.3,199.5,531.3z"/>
				<path class="st71" d="M199.3,567.6H243c0.6,0,1.2-0.5,1.2-1.2v-6.3c0-0.6-0.5-1.2-1.2-1.2h-43.7c-0.6,0-1.2,0.5-1.2,1.2v6.3
					C198.2,567,198.7,567.6,199.3,567.6z"/>
				<g>
					<g>
						<path class="st71" d="M366.4,577.8h9.5c0.7,0,1.2-0.6,1.2-1.2v-17.1c0-0.7-0.6-1.2-1.2-1.2h-9.5c-0.7,0-1.2,0.6-1.2,1.2v17.1
							C365.1,577.3,365.7,577.8,366.4,577.8z"/>
					</g>
					<g>
						<path class="st71" d="M350.8,636.8h9.5c0.7,0,1.2-0.6,1.2-1.2v-17.1c0-0.7-0.6-1.2-1.2-1.2h-9.5c-0.7,0-1.2,0.6-1.2,1.2v17.1
							C349.5,636.3,350.1,636.8,350.8,636.8z"/>
					</g>
					<g>
						<path class="st71" d="M382,666.4h9.5c0.7,0,1.2-0.6,1.2-1.2V648c0-0.7-0.6-1.2-1.2-1.2H382c-0.7,0-1.2,0.6-1.2,1.2v17.1
							C380.7,665.8,381.3,666.4,382,666.4z"/>
					</g>
					<g>
						<path class="st71" d="M366.4,695.9h9.5c0.7,0,1.2-0.6,1.2-1.2v-17.1c0-0.7-0.6-1.2-1.2-1.2h-9.5c-0.7,0-1.2,0.6-1.2,1.2v17.1
							C365.1,695.3,365.7,695.9,366.4,695.9z"/>
						<path class="st71" d="M350.8,695.9h9.5c0.7,0,1.2-0.6,1.2-1.2v-17.1c0-0.7-0.6-1.2-1.2-1.2h-9.5c-0.7,0-1.2,0.6-1.2,1.2v17.1
							C349.5,695.3,350.1,695.9,350.8,695.9z"/>
					</g>
					<g>
						<path class="st71" d="M382,725.4h9.5c0.7,0,1.2-0.6,1.2-1.2V707c0-0.7-0.6-1.2-1.2-1.2H382c-0.7,0-1.2,0.6-1.2,1.2v17.1
							C380.7,724.8,381.3,725.4,382,725.4z"/>
						<path class="st71" d="M350.8,725.4h9.5c0.7,0,1.2-0.6,1.2-1.2V707c0-0.7-0.6-1.2-1.2-1.2h-9.5c-0.7,0-1.2,0.6-1.2,1.2v17.1
							C349.5,724.8,350.1,725.4,350.8,725.4z"/>
					</g>
				</g>
				<g>
					<g>
						<path class="st71" d="M93,569.1h11.6c0.7,0,1.2-0.5,1.2-1.2v-17.2c0-0.7-0.5-1.2-1.2-1.2H93c-0.7,0-1.2,0.5-1.2,1.2v17.2
							C91.8,568.6,92.3,569.1,93,569.1z"/>
						<path class="st71" d="M54.9,569.1h11.6c0.7,0,1.2-0.5,1.2-1.2v-17.2c0-0.7-0.5-1.2-1.2-1.2H54.9c-0.7,0-1.2,0.5-1.2,1.2v17.2
							C53.7,568.6,54.2,569.1,54.9,569.1z"/>
					</g>
					<g>
						<path class="st71" d="M131,630.3h11.6c0.7,0,1.2-0.5,1.2-1.2v-17.2c0-0.7-0.5-1.2-1.2-1.2H131c-0.7,0-1.2,0.5-1.2,1.2v17.2
							C129.8,629.7,130.4,630.3,131,630.3z"/>
						<path class="st71" d="M93,630.3h11.6c0.7,0,1.2-0.5,1.2-1.2v-17.2c0-0.7-0.5-1.2-1.2-1.2H93c-0.7,0-1.2,0.5-1.2,1.2v17.2
							C91.8,629.7,92.3,630.3,93,630.3z"/>
						<path class="st71" d="M54.9,630.3h11.6c0.7,0,1.2-0.5,1.2-1.2v-17.2c0-0.7-0.5-1.2-1.2-1.2H54.9c-0.7,0-1.2,0.5-1.2,1.2v17.2
							C53.7,629.7,54.2,630.3,54.9,630.3z"/>
					</g>
					<g>
						<path class="st71" d="M73.9,660.8h11.6c0.7,0,1.2-0.5,1.2-1.2v-17.2c0-0.7-0.5-1.2-1.2-1.2H73.9c-0.7,0-1.2,0.5-1.2,1.2v17.2
							C72.7,660.3,73.2,660.8,73.9,660.8z"/>
					</g>
					<g>
						<path class="st71" d="M93,691.4h11.6c0.7,0,1.2-0.5,1.2-1.2V673c0-0.7-0.5-1.2-1.2-1.2H93c-0.7,0-1.2,0.5-1.2,1.2v17.2
							C91.8,690.9,92.3,691.4,93,691.4z"/>
					</g>
				</g>
				<rect x="53.7" y="364.4" class="st71" width="64.1" height="5.4"/>
				<rect x="77.4" y="380" class="st71" width="40.4" height="5.4"/>
				<rect x="53.7" y="395.6" class="st64" width="53.8" height="5.4"/>
				<rect x="53.7" y="457.9" class="st71" width="32.1" height="5.4"/>
				<rect x="72.7" y="473.5" class="st71" width="45.1" height="5.4"/>
				<rect x="67.7" y="504.7" class="st71" width="50.1" height="5.4"/>
			</g>
			<g class="st55">
				<g>
					<path class="st72" d="M464.3,720.2c0.1,0,0.1,0,0.2,0C464.5,720.2,461.2,721.7,464.3,720.2z M492.2,693
						c-28.8-29.8-63.7-55-103.5-66.5c-39.9-11.4-85.2-7.8-119.5,15.6c49.7,52.4,122.9,81.7,195,78.1c10.5,0.7,41,1.1,49.6-3.8
						c2.4-1.4-4.7-9.1-10.8-15.4C501.1,699,494.1,694.9,492.2,693z"/>
					<g class="st73">
						<path class="st74" d="M503.1,701c-1.9-2-8.9-6-10.9-8c-28.8-29.8-63.7-55-103.5-66.5c-19.2-5.5-39.6-7.5-59.4-5.5
							c22.8,0.7,45.8,6.8,66.2,17.2c36.1,18.3,65,48.6,87.4,82.4c12.1-0.2,25.7-1.2,31-4.2C516.3,715,509.2,707.3,503.1,701z"/>
					</g>
					<path class="st72" d="M526.6,630.3c5.7,16.7,13.6,41.4,6.5,57.6c-5.6,12.7-15.3,31.1-28,28.5c-10.7-14-32.4-42.4-46.2-53.4
						c-11.5-9.2-29.4-18.9-40.4-28.8c-27.8-25.2-38.6-58.8-54-93.1c28.2,2.7,56.1,8,83.3,15.8c17.8,5.1,35.8,11.5,49.5,23.8
						C511.8,593.6,520.3,611.9,526.6,630.3z"/>
					<path class="st75" d="M466.3,664c-9.7-11.1-25.6-23.8-34.7-35.5c-19.1-24.6-25.6-53-32.5-82.7c-11.5-2-23-3.6-34.6-4.7
						c15.4,34.2,26.2,67.9,54,93.1c11,9.9,28.8,19.6,40.4,28.8c6.6,5.3,15.1,14.6,23.2,24.4C476.7,678,471.1,669.4,466.3,664z"/>
					<path class="st72" d="M540.6,541.5c9.5,25.8,9.3,54,9.1,81.5c-0.1,10.5,2.5,27.7,0.1,37.9c-2,8.4-7.7,16.6-12.7,23.7
						c-4.4,6.2-9.8-1.2-13.7-7.3c-3.6-5.7-10.1-15.6-6.9-13.4c-4.6-15.9-7.2-26-11.7-42c-4.1-12.3-8.2-24.7-10.4-37.5
						c-5.4-31.6,0.8-63.8,7-95.2C519.2,502.2,533,520.7,540.6,541.5z"/>
					<g>
						<path class="st76" d="M289.5,647.7c36-1.3,71-0.2,105.8,9.8c32.7,9.3,62.8,24.9,89.8,45.3c1.4,1.1,2.8-1.3,1.4-2.4
							c-27.1-20.6-57.8-36-90.6-45.2c-35.2-9.9-70.2-10.6-106.5-8.3C289,646.8,289,647.7,289.5,647.7L289.5,647.7z"/>
					</g>
					<g>
						<path class="st76" d="M376.2,551.6c28.9,13.7,55.5,31.6,78.3,54.1c24.6,24.2,41.1,53.2,59.8,81.8c0.5,0.8,1.8,0.1,1.3-0.8
							c-31.6-59.3-76.3-109.2-139.1-135.7C376.1,550.7,375.7,551.4,376.2,551.6L376.2,551.6z"/>
					</g>
					<g>
						<path class="st76" d="M503.1,501.4c18.8,56.1,40.8,109.8,28.1,170.1c-0.3,1.3,1.7,1.8,1.9,0.5c11.9-57.3-5.4-118.8-29.5-170.8
							C503.4,500.9,503,501.1,503.1,501.4L503.1,501.4z"/>
					</g>
				</g>
				<g>
					<g>
						<path class="st77" d="M521.5,680.8l155.1-6.7c23,0,25.6,21.5,16.7,32.3c-28.8,34.6-130.6,27.7-177.6,27.7
							c-30.6,0-44.8-21.6-31.7-49.4C490.1,671.9,498.5,680.8,521.5,680.8z"/>
						<path class="st78" d="M469.3,501c1.3-0.2,3.1-0.6,4.2-1.2c6.1-2.7-0.7-9.9-2.4-13.5c-3.9-8.3-1.2-16.7,5.7-22.9
							c6.8-6,13.8-6.7,18.3-15.2c6.6-12.8-3-21.1,4.8-33.5c3.4-5.5,11.2-5.4,16-8.3c3-1.8,4.8-6.6,7.1-9.2
							c8.3-9.4,23.7-10.1,34.7-5.4c7,3,10.2,12.3,18.6,12.4c5.4,0,12,1.5,14,7.3c1.5,4.5-1,8.6-0.9,13c0.2,4.2,1.8,8.3,4.6,11.5
							c4.3,4.8,10.8,5.6,14,11.7c1.7,3.2,2.4,6.8,2.5,10.3c0.2,6.2-1.2,12.4-4.1,17.9c-2.8,5.2-6.7,9.6-9,15.1
							c-3.4,8.4,3.1,17.2,3.2,25.8c0.4,35-25.1,60-53.8,70.4c-19.3,7-51.4,2.1-70.6-5.6c-24-9.6-49.4-32.9-35.6-60.7
							C446,510.1,457.6,503,469.3,501z"/>
						<path class="st79" d="M469.3,501c1.3-0.2,3.1-0.6,4.2-1.2c6.1-2.7-0.7-9.9-2.4-13.5c-3.9-8.3-1.2-16.7,5.7-22.9
							c6.8-6,13.8-6.7,18.3-15.2c6.6-12.8-3-21.1,4.8-33.5c3.4-5.5,11.2-5.4,16-8.3c3-1.8,4.8-6.6,7.1-9.2
							c8.3-9.4,23.7-10.1,34.7-5.4c7,3,10.2,12.3,18.6,12.4c5.4,0,12,1.5,14,7.3c0,0.1,0,0.2,0.1,0.3c-4.3-1.8-8.9-2.9-13.6-2.9
							c-13.7-0.2-22.4,5.8-26.6,14.3c-11.6-1.9-23.4,1.1-28.2,7c-9.1,11-10.8,28.8,8.2,43.1c-5.7,2.6-10.5,6.2-14.6,10.7
							c-25.6,3.9-36.3,25.9-21.7,42.5c16.2,18.4,30.9,36.3,45.6,54.8c2.1,2.6,5.2,4.5,8.7,5.7c-0.4,0.1-0.8,0.3-1.1,0.4
							c-19.3,7-51.4,2.1-70.6-5.6c-24-9.6-49.4-32.9-35.6-60.7C446,510.1,457.6,503,469.3,501z"/>
						<g>
							<path class="st80" d="M740.2,558.1c0.6,1-1.3,7.8-2.2,8.7c-2.7,1.4-2.7,0.1-4.9-0.6c1.8-1.8,3.5-4,4.6-6.2
								C738.3,558.7,739.3,556.8,740.2,558.1z"/>
							<path class="st80" d="M746.8,563.9c1.4,0,4.7-0.4,5.8-0.3c1.9,0.3,2.5,1.7,3,2.6c0.6,1.2-0.2,2.1-0.2,2.1
								c1,1.4-2.2,3-1.9,3.3c1.3,1.2,0.4,3.3-4.8,3.6c-0.3,0-12.6,3.7-16.7,4.5c-1.1-2.9-2.2-12.5-2.1-12.5c2.2-0.9,4.5-1.6,7-2.1
								C739.7,564.5,746.4,563.9,746.8,563.9z"/>
							<path class="st80" d="M592.5,507.5c11.1,8.8,38.4,45.7,54.8,60.8c20.2,18.6,0,26-7.9,22.3c-20.8-9.6-73.5-45.9-69.6-57.2
								C571.4,528.5,590.4,505.9,592.5,507.5z"/>
							<path class="st80" d="M641,572.8c1-0.5,1.9-0.8,2.8-0.9c15.2-2.2,72.9-0.5,88.3-5.3c0.5,5.3-0.7,9.8,0.5,13
								c-25.6,7.4-89.5,18.3-95.2,9.3C632.1,580.7,636.7,575,641,572.8z"/>
							<path class="st81" d="M581.2,517.8c8.2,9.9,17.1,19.2,26.7,27.7c8.8,12.9,21.3,27.4,34.6,32.2c4,1.5,8.6,2.7,13.3,3.5
								c1.1,8.8-10.7,11.9-16.4,9.3c-20.8-9.6-73.5-45.9-69.6-57.2C570.6,530.9,575.9,523.9,581.2,517.8z"/>
							<path class="st81" d="M642.5,577.7c16.3,6,40,6.9,57.2,5.1c2.5-0.3,18.6-0.4,24.4-1c-29,7.1-81.5,15.2-86.7,7.1
								c-3.8-5.9-2.4-10.5,0.2-13.4C639.2,576.4,640.8,577.1,642.5,577.7z"/>
							<path class="st82" d="M592.5,507.5c7.8,6.2,24.6,26.1,40.5,41c-4,6-10.4,14-15.4,19.4c-2,2.2-8,8.9-10.1,10.9
								c-21.5-14.4-40.3-37.8-37.7-45.4C571.4,528.5,590.4,505.9,592.5,507.5z"/>
							<path class="st83" d="M586,512.4c-0.8,5.3,0.5,11.1,4.8,16.8c9.4,12.4,20.4,22.9,31.9,32.9c-1.7,2.1-3.4,4-5,5.7
								c-2,2.2-8,8.9-10.1,10.9c-21.5-14.4-40.3-37.8-37.7-45.4C570.9,530.1,579.6,519,586,512.4z"/>
						</g>
						<path class="st80" d="M543,461.8c2.8,1.8,19,10.6,23.7,9.9c0,1.4-3.4,15.9-0.2,23.8c-1.4,7.2-21,7.3-26.9-4.5
							C545,482.5,546.1,471.4,543,461.8z"/>
						<path class="st80" d="M561,437.4c9.1-0.6,18,1.5,20,10.1c0.7,3.1-0.6,31-15.5,35.3c-6.3,1.8-18.4-9-18.9-16.3
							c0,0-0.7-10-0.7-10.1C545.2,446.7,551.1,438.1,561,437.4z"/>
						<path class="st81" d="M543,461.8c1.5,1,7.3,4.2,13,6.8c0.1,0.2,0.1,0.3,0.2,0.5c-2.9,6.5-4,13.5-4.2,20.7
							c-0.1,3.7,0.4,7.1,1.3,10.4c-5.4-0.9-10.9-3.8-13.6-9.2C545,482.5,546.1,471.4,543,461.8z"/>
						<path class="st81" d="M561,437.4c0.8-0.1,1.5-0.1,2.3-0.1c-4.6,3.4-8,8-9.3,14.2c-1,4.6-1.8,9.9,0.7,13.9
							c6.4,10.6,2,14.7-1.2,12.2c-4.5-3.5-6.6-7.1-6.8-11.2c0,0-0.7-10-0.7-10.1C545.2,446.7,551.1,438.1,561,437.4z"/>
						<path class="st82" d="M493.9,531.4c5.6-15.4,14.7-32.9,30.2-36.7c5.2-1.2,15.3-4.2,15.3-4.2s10.9,9.4,18,9.9
							c4.9,0.4,9.1-4.9,9.1-4.9s17.7,5.4,20.9,7.2c12.5,7.2,12.7,19.5,13.4,29.6c7.3,101.2,11.8,134.8,11.8,144.4
							c0,5.2-29.1,6-49.3,7.7c-40.6,3.3-89.8,17.9-88.2,6.6C483.3,634.6,492.2,536.1,493.9,531.4z"/>
						<path class="st83" d="M521.9,495.4c-0.7,2.7-1.1,5.7-1.1,8.9c0,6.4,0.6,12.8,2.3,19c1.1,4,5.7,11.2,5.6,15.4
							c-0.4,8.5-7.8,21.7-10,30.6c-5.7,22.5-15.6,43.9-14.6,67.7c1.1,24.1,11,41.1,25.8,51.9c-29.9,4.9-55.7,10.5-54.5,2.2
							c8-56.5,16.9-154.9,18.6-159.7C499.2,516.8,507.8,500.2,521.9,495.4z"/>
						<path class="st81" d="M546.2,452.5c1,0,2.7,0.5,4.1,1.4c-0.9,3.3-3.2,8.6-4.3,11.2c-2.4-0.7-5.1-4.5-5-6.9
							C541.2,455.7,543.7,452.4,546.2,452.5z"/>
						<g>
							<path class="st80" d="M616.7,660.8c1.4-0.2,2.9-0.8,2.9,1.1c0.1,1.2-5,2.9-6.2,2.6c-2.7-1.5-1.8-3-4.5-4.1
								C611.4,660.9,614.2,661,616.7,660.8z"/>
							<path class="st80" d="M606.9,659.5c2.7,1,5.5,2.4,8.1,3.9c3.2,1.7,9.8,6.4,10.2,6.8c1.3,1,4.9,3.2,5.6,4.3
								c0.5,0.7,1,3.1,0.7,4c-0.4,1.3-1.9,1.3-1.9,1.3c-0.2,1.8-4.4,0.4-4.4,0.8c0.2,1.8-2.2,2.6-7.3-1.2c-0.3-0.2-14.6-7.1-19-9.6
								C600.2,666.9,606.8,659.5,606.9,659.5z"/>
							<path class="st80" d="M516.4,523.6c4.7-2.3,34.1-4.9,34.4-2.4c1.7,14.1-5,59.5-4,81.8c1.2,27.4-18.3,18.4-21.4,10.3
								C517.5,591.8,505.7,528.9,516.4,523.6z"/>
							<path class="st82" d="M550.8,521.3c4.5,8.9-0.9,35.9-0.2,57.7c-9.3,4.1-26.3,6.2-39.4,3.5c-5.1-25.4-4.5-48.6-1.6-56
								C517,507.2,545,509.7,550.8,521.3z"/>
							<path class="st83" d="M520.2,514.9c-8.2,30.2,5.1,62.4,5.4,68.7c-5,0.1-9.9-0.2-14.4-1.2c-5.1-25.4-4.5-48.6-1.6-56
								C511.7,520.8,515.7,517.1,520.2,514.9z"/>
							<path class="st80" d="M538.2,600.8c1,0.3,1.9,0.8,2.6,1.3c12.4,9,52.5,50.5,67,57.8c-3.3,4.1-5.8,7.7-7.2,10.8
								c-23.5-12.6-78.5-50.5-76.3-60.9C526.4,600.2,533.6,599.3,538.2,600.8z"/>
						</g>
						<g>
							<path class="st84" d="M616.5,691.6c36.4-11.4,60.9-21.3,92.5-18.2c20.2,2,27.9,12.5,23.1,23c-4.7,10.2-15.2,13.5-25.1,15.8
								c-94.4,21.2-171.8,26.5-171.8,26.5c-9.2-3.5-3.7-16.3-3.7-16.3C557.3,718.8,595.3,698.3,616.5,691.6z"/>
							<path class="st77" d="M558.9,728.8c5.5-1.1,9.8-3.6,16.3-4c5.3-0.3,10.6,0.6,16.6-0.3c11.5-1.6,18.9-6.1,28.9-11.5
								c7.1-3.8,11.2-6.7,21.7-6.4c6.4,0.2,11.6,2.6,19.2,2.7c19.1,0.3,40.8-5.8,50.5-16.2c7.5-8.1,7.2-14.5,1.9-19.1
								c17.4,3.1,22.7,12.7,18.3,22.3c-4.7,10.2-15.2,13.5-25.1,15.8c-94.4,21.2-165.5,26.2-165.5,26.2c-5.7-5-10.9-7.7-11.1-12.2
								C538.7,728.9,548,731,558.9,728.8z"/>
							<path class="st85" d="M514.1,722.9c4-0.6,12.9-0.8,18.8-0.8c0,0-0.9,3.5,1.2,3.5c1.6,0,5.2,0.1,5.2,0.1
								c0.4,6.4,2.3,12.6,2.3,12.6s-9.8,1.2-15,2.3c-6,1.3-10.2,3.5-14.8,4.4c-4.4,0.9-6.7,0.7-8.6-3.7c-1.8-4.3-3.2-10.3-0.2-13.8
								C506,723.9,508.3,723.7,514.1,722.9z"/>
							<path class="st86" d="M516.4,740c3.5-1.7-0.3-7.4,11-8c1-0.1,5.7-0.6,12.1-3.7c0.6,5.4,2.1,10,2.1,10s-9.8,1.2-15,2.3
								c-6,1.3-10.2,3.5-14.8,4.4c-4.4,0.9-6.7,0.7-8.6-3.7c-0.7-1.7-1.3-3.6-1.7-5.6C505,741.7,510.1,743,516.4,740z"/>
							<path class="st87" d="M514.1,722.9c0.8-0.1,1.7-0.2,2.8-0.3c-3.3,0.6-7.1,1.4-9,2.7c-7,4.8-4.2,19.8,0.9,20.2
								c0,0-5,0.4-6.2-3.8c-1.3-4.5-2.6-10.7,0.3-14.2C506,723.9,508.3,723.7,514.1,722.9z"/>
						</g>
						<g>
							<path class="st84" d="M525.7,673.4c31.5-3.1,56.1,6.8,92.5,18.2c21.2,6.7,59.2,27.2,85.1,30.7c0,0,5.4,12.8-3.7,16.3
								c0,0-77.4-5.3-171.8-26.5c-9.9-2.2-20.3-5.5-25.1-15.8C497.8,685.9,505.5,675.4,525.7,673.4z"/>
							<path class="st77" d="M520.9,674.1c-5.3,4.6-5.6,11,1.9,19.1c9.6,10.4,31.4,16.5,50.5,16.2c7.6-0.1,12.8-2.5,19.2-2.7
								c10.4-0.3,14.6,2.6,21.7,6.4c10,5.3,17.4,9.9,28.9,11.5c5.9,0.8,11.3-0.1,16.6,0.3c6.4,0.4,10.8,2.9,16.3,4
								c10.9,2.2,20.2,0.1,28.5-2.6c-0.2,4.5-5.4,7.2-11.1,12.2c0,0-71-5-165.4-26.2c-9.9-2.2-20.3-5.5-25.1-15.8
								C498.2,686.8,503.5,677.2,520.9,674.1z"/>
							<path class="st85" d="M700.7,725.6c2.1,0.1,1.2-3.5,1.2-3.5c5.9,0,14.8,0.2,18.8,0.8c5.8,0.8,8.1,1,11.1,4.7
								c3,3.5,1.7,9.5-0.2,13.8c-1.9,4.4-4.2,4.6-8.6,3.7c-4.6-0.9-8.8-3-14.8-4.4c-5.2-1.2-15-2.3-15-2.3s1.9-6.2,2.3-12.6
								C695.5,725.7,699,725.5,700.7,725.6z"/>
							<path class="st86" d="M707.3,732c11.3,0.6,7.5,6.4,11,8c6.3,3,11.4,1.7,15-4.3c-0.3,1.9-1,3.9-1.7,5.6
								c-1.9,4.4-4.2,4.6-8.6,3.7c-4.6-0.9-8.8-3-14.8-4.4c-5.2-1.2-15-2.3-15-2.3s1.4-4.6,2.1-10C701.6,731.4,706.3,732,707.3,732z
								"/>
							<path class="st87" d="M726.8,725.3c-1.9-1.3-5.7-2.1-9-2.7c1.1,0.1,2,0.2,2.8,0.3c5.8,0.8,8.1,1,11.1,4.7
								c3,3.5,1.7,9.7,0.3,14.2c-1.3,4.2-6.2,3.8-6.2,3.8C731,745.1,733.8,730.1,726.8,725.3z"/>
						</g>
					</g>
					<g>
						<g>
							<path class="st64" d="M638.2,676.4C638.2,676.4,638.2,676.4,638.2,676.4c0,2.7-2.2,5-4.9,5h-116c-2.7,0-4.9-2.2-4.9-4.9
								c0,0,0,0,0,0H638.2z"/>
						</g>
						<path class="st64" d="M650.9,572.9c1.1-4,3.1-5.5,7.3-5.4l72.6,0v112.7l-98.3,1.2c-6,0-6.4-4.7-6-6.3L650.9,572.9z"/>
						<path class="st88" d="M630.3,676.4l25.6-106.8c0.1-0.3,0.2-0.6,0.4-0.9c0.3-0.4,0.7-0.8,1.2-1c0.4-0.2,0.8-0.3,1.2-0.3h125.7
							c0.8,0,1.5,0.3,2,0.9c0.6,0.6,1,1.5,0.8,2.5c0,0.1,0,0.2-0.1,0.3l-23.6,99.8c-1.7,6.2-7.3,10.4-13.8,10.4h-117c0,0,0,0,0,0
							c-0.3,0-0.6-0.1-0.9-0.2c-0.1-0.1-0.2-0.1-0.4-0.2c0,0-0.1,0-0.1-0.1c-0.1-0.1-0.2-0.1-0.3-0.2c-0.4-0.3-0.7-0.6-0.9-1.1
							c0-0.1-0.1-0.2-0.1-0.3c0-0.1,0-0.1,0-0.1c0-0.1-0.1-0.2-0.1-0.3c-0.1-0.4-0.1-0.8,0.1-1.3L630.3,676.4z"/>
						<path class="st89" d="M655.8,569.5c0.3-1.3,1.5-2.1,2.8-2.1h125.7c1.8,0,3.1,1.6,2.8,3.3c-0.3-0.1-0.6-0.2-1-0.2H660.5
							c-1.3,0-2.4,0.9-2.8,2.1l-25.9,108.1c0,0.1,0,0.2,0,0.3c-1.4-0.5-2.2-2-1.8-3.5L655.8,569.5z"/>
					</g>
					<g>
						<path class="st64" d="M686.7,595l-3.7,42.2c-0.1,0.9,0.4,1.8,1.1,2l21.5,7.6l0.8-9.1l-15.7-5.5l0.8-9.1l15.7,5.5l0.8-9.1
							l-15.7-5.5l0.8-9.1l15.7,5.5l0.8-9.1c-8.6-2.2-21.5-7.6-21.5-7.6C687.4,593.6,686.8,594.1,686.7,595z M737.8,605.6l-3.7,42.2
							c-0.1,0.9-0.8,1.5-1.5,1.4l-24.7-2.2l0.8-9.1l18.1,1.6l0.8-9.1l-18.1-1.6l0.8-9.1l18.1,1.6l0.8-9.1l-18.1-1.6l0.8-9.1
							l24.7,2.2C737.3,604,737.9,604.7,737.8,605.6z"/>
						<g>
							<g class="st90">
								<path class="st91" d="M691.1,627.2l16.1,1.4l-15.7-5.5L691.1,627.2z M693.1,605l15.7,5.5l-16.1-1.4L693.1,605z M683.8,599.1
									l2.5,0.2l-3.3,37.9c-0.1,0.9,0.4,1.8,1.1,2l21.5,7.6l-25.8-2.3c-0.8-0.1-1.4-0.8-1.3-1.7l3.7-42.2
									C682.3,599.7,683,599.1,683.8,599.1z"/>
							</g>
						</g>
					</g>
				</g>
			</g>
			<g class="st55">
				<g>
					<path class="st92" d="M6.2,827.5c-19.6,9.4-52.3,2.6-38.9-29.2c14.4-34.2,37.1-67.6,62-97.1c30.1-35.6,73-83.2,103.2-104.9
						c58.8-42.1,55,26.5,46.2,55c-12.7,41.3-57,78-89.9,110.5C62.9,787.4,27.6,817.2,6.2,827.5z"/>
					<path class="st76" d="M165.7,583.2c0.2,12.1-1.4,24.7-3.6,33.8c-10.9,45.1-53.8,88.4-85.5,126.1c-24.9,29.7-59,64.8-80.2,77.7
						c-7.4,4.6-16.9,6.8-25.1,5.8c8.8,6.4,23.8,6.2,34.8,0.9c21.4-10.3,56.7-40.1,82.6-65.6c32.9-32.5,77.2-69.2,89.9-110.5
						C185.3,630,189.1,586,165.7,583.2z"/>
					<path class="st92" d="M373.3,952.4H105.6c0,0,3.5-74.4,0-138c-3.6-65.2-10.8-122.6,3.5-173.9c4.7-17,13.6-42,43-55.9
						c21-9.9,63.7-23.3,99.7-22.9c34.2,0.4,63.1,10.4,78.9,17.2c42.2,18.4,41.5,37,44.3,61.1c6.5,56.6-5.3,137.6-5.3,209.4
						C369.7,908.2,373.3,952.4,373.3,952.4z"/>
					<path class="st76" d="M375,640.3c-0.5-4.1-0.8-8.1-1.3-11.9c-5.1-3.7-11.7-7.7-17.2-10.7c-32.2-18.1-57.6-5.1-48.2,35.9
						c2.6,11.3,11.3,25.6,13.8,37c5.4,24.9,0,45.8-9,64.6c-9.3,19.5-11,39.4-8.1,62.3c2.8,22.5,14.8,45,12.9,67.7
						c-3.9,47.3-60.6,57.9-101.1,67.5h156.4c0,0-3.5-44.2-3.5-102.9C369.7,777.9,381.5,696.9,375,640.3z"/>
					<path class="st92" d="M470.8,832c2,38.2-41.3,29.9-61.6-0.8c-16.7-25.3-23-48-41.2-89.9c-18.5-42.6-35.9-55.4-48.7-92.2
						c-11.5-33.1-22.9-87.2,35.8-55.3C422.4,630.3,467.1,760.2,470.8,832z"/>
					<path class="st93" d="M449,857.3c-17.8,0-101.5-39.1-136.1-52.6c-5.9-2.3-26.6-11.4-38.4-11.5c-17.1-0.2-38.4,3.8-47.6,1
						c-12.1-3.7-38.1-22.2-39.1-27.3c-1.8-10,59.1-8.3,59.1-8.3s-19.6-15.9-8.8-14.2c10.9,1.7,20.9,3.1,28.6,8.5
						c8.1,5.6,22.2,18.6,34.4,22.1c49.6,13.9,104.5,15.6,129.3,22.4c15,4.1,31,16.1,35.9,28.8C469.3,833.8,478.1,857.3,449,857.3z"
						/>
					<path class="st93" d="M292.5,566.7l-5.5-1.1c-7.2-1.4-12.5-7.4-12.9-14.7c-1.9-32.9-4.5-82.2-4.5-82.2h-54.9V555
						c0,6-4.2,11.1-10.1,12.4c-2.3,0.5-4.7,1.1-7,1.6c-0.4,1.2-0.5,2.4-0.5,3.7c0,14.1,20.6,25.5,46,25.5
						C268.5,598.3,296.9,586.3,292.5,566.7z"/>
					<path class="st94" d="M272.4,520.4c-6.1,17.4-24.4,35.1-44.9,34.1c-5.1-0.3-10.2-1.9-12.8-3.5v-82.3h54.9
						C269.6,468.6,271,493.9,272.4,520.4z"/>
					<path class="st93" d="M271.7,463.5c-8.5,40.9-26.6,52.4-44.4,52.4c-18.7,0-30-8.2-35.7-47.3c-6.1-42.1-2.8-57.9,21.4-67
						c10.3-3.8,36.6-4.2,48.7,7.9C272.3,420.2,274.9,448.1,271.7,463.5z"/>
					<path class="st95" d="M287.1,407.8c-2-15.7-12-27.7-25.1-23.5c-7.3-11-22.2-16.5-30.6-19.2c-11-3.5-31-7-42.8-4.3
						c-12.5,2.8-15.5,11.2-1.4,15.3c-6.3,2.4-14,8.5-17.9,13.2c-3.7,4.4-9.5,19.1,3.9,18.7c-5.5,15.2,9.5,26.9,16.2,30.5
						c-1.4-14.8,4.9-25,11.7-27.2c10.1-3.2,34.4-2,45.1,5.6c14.5,10.2,14.8,37.2,13.6,45.9c-0.4,3-10.2,16.3-23.4,16.3
						c-6,0-12.1-4.6-20-4.6c-7.3,0-9.8,3.7-15.4,3.7c-8.4,0-8.4-14-10.2-14.5c-5.5-1.8-12.3,16.5-12.3,41.9
						c0,21.6,13.4,41.9,32.7,41.9c22.4,0,36.4-8.7,46.6-21.6c12.3-15.6,11.9-37.3,9.6-57.1c5.9-4.9,10.4-11.3,11.8-15
						C284.9,439.4,289,422.7,287.1,407.8z"/>
					<path class="st64" d="M231.8,489.9c0,1.1-5.4,4-12.1,4s-12.1-3.2-12.1-4.8c0-1,5.4-0.3,12.1-0.3S231.8,488.5,231.8,489.9z"/>
					<path class="st94" d="M283.3,457.5c-1.2,8.5-8.3,16.8-12.6,15.5c-3.5-1.1-3.7-6.9-3.5-15.5c0.2-8.1,1.3-15.5,6.6-15.5
						C279.1,442,284.8,447.3,283.3,457.5z"/>
					<path class="st94" d="M465.2,844c-29.9,7.5-71-9.5-113.2-31c-27.5-14-40.4-17.7-59.1-22.3c-13-3.2-34.7-2-38.6,2.7
						c-1.6,2,15.9-0.7,23.4,0.5c10.9,1.7,26.1,7.7,36.3,11.9c23.3,9.6,46.4,20.1,69.4,30.4c16.8,7.5,33.8,16.5,51.8,20.7
						c7.6,1.8,16.7,3.3,25.1-0.6C468.5,852.6,474.1,841.8,465.2,844z"/>
					<path class="st64" d="M474,808.5c-4.7-29.5-23.1-33-49.3-35.1c-18.6-1.4-64.8,11.3-34.2,18.1c13.2,2.9,28.6,4,39.7,8.2
						c11.8,4.5,24.5,9.7,32.6,23.6c8.1,14,4.3,29.5,8.1,27.4C476.5,847.7,475,815.4,474,808.5z"/>
					<path class="st64" d="M22.9,820.2c2.4-5.3,0.5-19.4-2.4-26.7c-3.2-8.2-13.2-23.7-26.7-29.9c-10.6-4.8-15.3,4.3-19.5,10.7
						c-2.9,4.5-4.8,10.7,1.2,15.2c9.6,7.1,20.3,20.8,17.4,30.7c-2.3,8.1-16,10.5-14.8,13.2C-19.2,839.3,17.8,831.4,22.9,820.2z"/>
					<path class="st64" d="M207.4,612.1l21.3-18.4c-3.9-1.6-11.1-4.8-14-7.2c-5.4-4.5-9.8-8.7-8-19.2c0.7-4.2,9-8.1,1.9-8.1
						c-4.7,0-10.1,2.8-12.6,7.3c-2.7,5-3.4,12.5-2.8,17.9C194.2,594.8,200.4,604.4,207.4,612.1z"/>
					<path class="st64" d="M294.3,565.7c-2.4-6.6-6.3-1.6-6.6-0.4c-2.5,9.7-7.1,15.6-17.8,21.4c-7.7,4.1-19.9,8-30.8,7.7
						c-1.5,0-2.7-0.1-3.6,0l17.5,22.2C273,609.2,300.2,587.5,294.3,565.7z"/>
					<path class="st93" d="M-29.7,788.3c15.1-9.6,100.4-22.6,129.8-29.5c5.3-1.3,28.2-5.3,36.6-11.2c12.1-8.6,22.3-22.8,30.2-25.2
						c8.8-2.7,42-1.4,43.8,2.5c1.8,3.8-19.2,5.2-29.5,7.7c-4.6,1.1-7.3,4.1-10.1,7.7c-3.4,4.3-1.8,2.3-4.1,5.5
						c-1.7,2.4-2.5,4.3-1.5,5c1.6,1.1,2.3,1.7,5.6,0.3c3.9-1.6,6.8-1.3,10.1-1.8c3.6-0.6,3.9,0.5,1.6,2.6
						c-3.7,3.3-12,11.4-19.3,15.7c-4.7,2.8-9.6,3.4-12,3.8c-10.2,1.7-15.8-1.4-26.1,2.4c-42.3,15.5-93.9,44.9-120,56
						c-13,5.5-33.9,6.1-45.9-8.9C-45.6,814.5-44.8,797.9-29.7,788.3z"/>
					<polygon class="st96" points="220.9,698.6 169.5,704.5 195.6,764.6 247,758.7 					"/>
					<polygon class="st88" points="218.9,705.5 171.4,709.3 195.6,764.6 241.6,759.1 					"/>
				</g>
				<g>
					<path class="st64" d="M189.3,722.8l7.6,17.5c0.2,0.4,0.5,0.6,0.9,0.6l10.1-1.7l-1.6-3.8l-7.4,1.2l-1.6-3.8l7.4-1.2l-1.6-3.8
						l-7.4,1.2l-1.6-3.8l7.4-1.2l-1.6-3.8c-3.9,1-10.1,1.7-10.1,1.7C189.2,722.1,189.1,722.4,189.3,722.8z M211.7,716l7.6,17.5
						c0.2,0.4,0,0.8-0.3,0.9l-10.2,4.5l-1.6-3.8l7.5-3.3l-1.6-3.8l-7.5,3.3l-1.6-3.8l7.5-3.3l-1.6-3.8l-7.5,3.3l-1.6-3.8l10.2-4.5
						C211.2,715.4,211.6,715.6,211.7,716z"/>
					<g>
						<g class="st90">
							<path class="st91" d="M197.9,734.6l6.7-2.9l-7.4,1.2L197.9,734.6z M193.9,725.4l7.4-1.2l-6.7,2.9L193.9,725.4z M189,725.1
								l1-0.5l6.8,15.7c0.2,0.4,0.5,0.6,0.9,0.6l10.1-1.7l-10.7,4.7c-0.3,0.1-0.7,0-0.9-0.4l-7.6-17.5
								C188.5,725.6,188.7,725.2,189,725.1z"/>
						</g>
					</g>
				</g>
			</g>
		</g>
		<path class="st64" d="M173.7,388c0,0,23,0.6,35.6,24C209.3,412,201.3,386.3,173.7,388z"/>
		<path class="st64" d="M562.5,412.1c0,0-23,0.6-35.6,24C526.9,436.1,534.9,410.4,562.5,412.1z"/>
		<path class="st64" d="M456,540.3c0,0,1.8,23,25.8,34.3C481.9,574.6,455.8,567.9,456,540.3z"/>
		<path class="st97" d="M237.4,257.8c0.1-0.7,0.1-1.4,0.1-2.1c0-9.9-8-18-18-18c-2.8,0-5.5,0.7-7.8,1.8
			c-2.7-9.4-11.4-16.2-21.6-16.2c-11.2,0-20.5,8.2-22.2,18.9c-5.8,1-10.8,4-14.4,8.4c-1.2-0.4-2.4-0.6-3.8-0.6
			c-6.7,0-12.2,5.4-12.2,12.2c0,6.6,5.3,12,11.9,12.1c0,0,0,0,0,0h35.1h10.1h4.4h22.9h14.5c0,0,0,0,0-0.1c0.2,0,0.4,0.1,0.7,0.1
			c4.6,0,8.2-3.7,8.2-8.2C245.4,261.6,241.8,258,237.4,257.8z"/>
	</g>
</g>
</svg>
